%YAML 1.1
%TAG !u! tag:unity3d.com,2011:
--- !u!29 &1
OcclusionCullingSettings:
  m_ObjectHideFlags: 0
  serializedVersion: 2
  m_OcclusionBakeSettings:
    smallestOccluder: 5
    smallestHole: 0.25
    backfaceThreshold: 100
  m_SceneGUID: 00000000000000000000000000000000
  m_OcclusionCullingData: {fileID: 0}
--- !u!104 &2
RenderSettings:
  m_ObjectHideFlags: 0
  serializedVersion: 9
  m_Fog: 0
  m_FogColor: {r: 0.5, g: 0.5, b: 0.5, a: 1}
  m_FogMode: 3
  m_FogDensity: 0.01
  m_LinearFogStart: 0
  m_LinearFogEnd: 300
  m_AmbientSkyColor: {r: 0.212, g: 0.227, b: 0.259, a: 1}
  m_AmbientEquatorColor: {r: 0.114, g: 0.125, b: 0.133, a: 1}
  m_AmbientGroundColor: {r: 0.047, g: 0.043, b: 0.035, a: 1}
  m_AmbientIntensity: 1
  m_AmbientMode: 0
  m_SubtractiveShadowColor: {r: 0.42, g: 0.478, b: 0.627, a: 1}
  m_SkyboxMaterial: {fileID: 10304, guid: 0000000000000000f000000000000000, type: 0}
  m_HaloStrength: 0.5
  m_FlareStrength: 1
  m_FlareFadeSpeed: 3
  m_HaloTexture: {fileID: 0}
  m_SpotCookie: {fileID: 10001, guid: 0000000000000000e000000000000000, type: 0}
  m_DefaultReflectionMode: 0
  m_DefaultReflectionResolution: 128
  m_ReflectionBounces: 1
  m_ReflectionIntensity: 1
  m_CustomReflection: {fileID: 0}
  m_Sun: {fileID: 0}
  m_IndirectSpecularColor: {r: 0.44657993, g: 0.49641478, b: 0.5748151, a: 1}
  m_UseRadianceAmbientProbe: 0
--- !u!157 &3
LightmapSettings:
  m_ObjectHideFlags: 0
  serializedVersion: 11
  m_GIWorkflowMode: 1
  m_GISettings:
    serializedVersion: 2
    m_BounceScale: 1
    m_IndirectOutputScale: 1
    m_AlbedoBoost: 1
    m_TemporalCoherenceThreshold: 1
    m_EnvironmentLightingMode: 0
    m_EnableBakedLightmaps: 1
    m_EnableRealtimeLightmaps: 1
  m_LightmapEditorSettings:
    serializedVersion: 10
    m_Resolution: 2
    m_BakeResolution: 40
    m_AtlasSize: 1024
    m_AO: 0
    m_AOMaxDistance: 1
    m_CompAOExponent: 1
    m_CompAOExponentDirect: 0
    m_Padding: 2
    m_LightmapParameters: {fileID: 0}
    m_LightmapsBakeMode: 1
    m_TextureCompression: 1
    m_FinalGather: 0
    m_FinalGatherFiltering: 1
    m_FinalGatherRayCount: 256
    m_ReflectionCompression: 2
    m_MixedBakeMode: 1
    m_BakeBackend: 0
    m_PVRSampling: 1
    m_PVRDirectSampleCount: 32
    m_PVRSampleCount: 500
    m_PVRBounces: 2
    m_PVRFilterTypeDirect: 0
    m_PVRFilterTypeIndirect: 0
    m_PVRFilterTypeAO: 0
    m_PVRFilteringMode: 0
    m_PVRCulling: 1
    m_PVRFilteringGaussRadiusDirect: 1
    m_PVRFilteringGaussRadiusIndirect: 5
    m_PVRFilteringGaussRadiusAO: 2
    m_PVRFilteringAtrousPositionSigmaDirect: 0.5
    m_PVRFilteringAtrousPositionSigmaIndirect: 2
    m_PVRFilteringAtrousPositionSigmaAO: 1
    m_ShowResolutionOverlay: 1
  m_LightingDataAsset: {fileID: 112000001, guid: 44b3ece9b403cc34488d19d47a615b00,
    type: 2}
  m_UseShadowmask: 0
--- !u!196 &4
NavMeshSettings:
  serializedVersion: 2
  m_ObjectHideFlags: 0
  m_BuildSettings:
    serializedVersion: 2
    agentTypeID: 0
    agentRadius: 0.5
    agentHeight: 2
    agentSlope: 45
    agentClimb: 0.4
    ledgeDropHeight: 0
    maxJumpAcrossDistance: 0
    minRegionArea: 2
    manualCellSize: 0
    cellSize: 0.16666667
    manualTileSize: 0
    tileSize: 256
    accuratePlacement: 0
    debug:
      m_Flags: 0
  m_NavMeshData: {fileID: 0}
--- !u!1001 &108585077
Prefab:
  m_ObjectHideFlags: 0
  serializedVersion: 2
  m_Modification:
    m_TransformParent: {fileID: 1406474175}
    m_Modifications:
    - target: {fileID: 4481455733507050, guid: e634428e960c66a489d6e8c512aeb2f9, type: 2}
      propertyPath: m_LocalPosition.x
      value: 1.774
      objectReference: {fileID: 0}
    - target: {fileID: 4481455733507050, guid: e634428e960c66a489d6e8c512aeb2f9, type: 2}
      propertyPath: m_LocalPosition.y
      value: 0.79
      objectReference: {fileID: 0}
    - target: {fileID: 4481455733507050, guid: e634428e960c66a489d6e8c512aeb2f9, type: 2}
      propertyPath: m_LocalPosition.z
      value: -2.647
      objectReference: {fileID: 0}
    - target: {fileID: 4481455733507050, guid: e634428e960c66a489d6e8c512aeb2f9, type: 2}
      propertyPath: m_LocalRotation.x
      value: -0
      objectReference: {fileID: 0}
    - target: {fileID: 4481455733507050, guid: e634428e960c66a489d6e8c512aeb2f9, type: 2}
      propertyPath: m_LocalRotation.y
      value: -0
      objectReference: {fileID: 0}
    - target: {fileID: 4481455733507050, guid: e634428e960c66a489d6e8c512aeb2f9, type: 2}
      propertyPath: m_LocalRotation.z
      value: -0
      objectReference: {fileID: 0}
    - target: {fileID: 4481455733507050, guid: e634428e960c66a489d6e8c512aeb2f9, type: 2}
      propertyPath: m_LocalRotation.w
      value: 1
      objectReference: {fileID: 0}
    - target: {fileID: 4481455733507050, guid: e634428e960c66a489d6e8c512aeb2f9, type: 2}
      propertyPath: m_RootOrder
      value: 7
      objectReference: {fileID: 0}
    - target: {fileID: 1818082159732144, guid: e634428e960c66a489d6e8c512aeb2f9, type: 2}
      propertyPath: m_Name
      value: prfb_hymachete01
      objectReference: {fileID: 0}
    m_RemovedComponents: []
  m_SourcePrefab: {fileID: 100100000, guid: e634428e960c66a489d6e8c512aeb2f9, type: 2}
  m_IsPrefabAsset: 0
--- !u!4 &108585078 stripped
Transform:
  m_CorrespondingSourceObject: {fileID: 4481455733507050, guid: e634428e960c66a489d6e8c512aeb2f9,
    type: 2}
  m_PrefabInternal: {fileID: 108585077}
--- !u!1001 &114514820
Prefab:
  m_ObjectHideFlags: 0
  serializedVersion: 2
  m_Modification:
    m_TransformParent: {fileID: 1513447593}
    m_Modifications:
    - target: {fileID: 400028, guid: 0372829a6cdcf4048864aefb5257a6d9, type: 3}
      propertyPath: m_LocalPosition.x
      value: 2.44
      objectReference: {fileID: 0}
    - target: {fileID: 400028, guid: 0372829a6cdcf4048864aefb5257a6d9, type: 3}
      propertyPath: m_LocalPosition.y
      value: 0
      objectReference: {fileID: 0}
    - target: {fileID: 400028, guid: 0372829a6cdcf4048864aefb5257a6d9, type: 3}
      propertyPath: m_LocalPosition.z
      value: -2.097
      objectReference: {fileID: 0}
    - target: {fileID: 400028, guid: 0372829a6cdcf4048864aefb5257a6d9, type: 3}
      propertyPath: m_LocalRotation.x
      value: -0
      objectReference: {fileID: 0}
    - target: {fileID: 400028, guid: 0372829a6cdcf4048864aefb5257a6d9, type: 3}
      propertyPath: m_LocalRotation.y
      value: -0
      objectReference: {fileID: 0}
    - target: {fileID: 400028, guid: 0372829a6cdcf4048864aefb5257a6d9, type: 3}
      propertyPath: m_LocalRotation.z
      value: -0
      objectReference: {fileID: 0}
    - target: {fileID: 400028, guid: 0372829a6cdcf4048864aefb5257a6d9, type: 3}
      propertyPath: m_LocalRotation.w
      value: 1
      objectReference: {fileID: 0}
    - target: {fileID: 400028, guid: 0372829a6cdcf4048864aefb5257a6d9, type: 3}
      propertyPath: m_RootOrder
      value: 0
      objectReference: {fileID: 0}
    - target: {fileID: 13700000, guid: 0372829a6cdcf4048864aefb5257a6d9, type: 3}
      propertyPath: m_Materials.Array.data[6]
      value: 
      objectReference: {fileID: 2100000, guid: e52beaa4aab34c142addc7c051e1e4ae, type: 2}
    - target: {fileID: 13700000, guid: 0372829a6cdcf4048864aefb5257a6d9, type: 3}
      propertyPath: m_Materials.Array.data[3]
      value: 
      objectReference: {fileID: 2100000, guid: c6145666d94cf5c48ac29d10f8bdb352, type: 2}
    - target: {fileID: 13700000, guid: 0372829a6cdcf4048864aefb5257a6d9, type: 3}
      propertyPath: m_Materials.Array.data[1]
      value: 
      objectReference: {fileID: 2100000, guid: c6145666d94cf5c48ac29d10f8bdb352, type: 2}
    - target: {fileID: 13700000, guid: 0372829a6cdcf4048864aefb5257a6d9, type: 3}
      propertyPath: m_Materials.Array.data[4]
      value: 
      objectReference: {fileID: 2100000, guid: c6145666d94cf5c48ac29d10f8bdb352, type: 2}
    - target: {fileID: 13700000, guid: 0372829a6cdcf4048864aefb5257a6d9, type: 3}
      propertyPath: m_Materials.Array.data[2]
      value: 
      objectReference: {fileID: 2100000, guid: c6145666d94cf5c48ac29d10f8bdb352, type: 2}
    - target: {fileID: 13700000, guid: 0372829a6cdcf4048864aefb5257a6d9, type: 3}
      propertyPath: m_Materials.Array.data[7]
      value: 
      objectReference: {fileID: 2100000, guid: c6145666d94cf5c48ac29d10f8bdb352, type: 2}
    - target: {fileID: 9500000, guid: 0372829a6cdcf4048864aefb5257a6d9, type: 3}
      propertyPath: m_Controller
      value: 
      objectReference: {fileID: 9100000, guid: 2e085afa940d52c42a76d25b45e68d09, type: 2}
    m_RemovedComponents: []
  m_SourcePrefab: {fileID: 100100000, guid: 0372829a6cdcf4048864aefb5257a6d9, type: 3}
  m_IsPrefabAsset: 0
--- !u!4 &114514821 stripped
Transform:
  m_CorrespondingSourceObject: {fileID: 400028, guid: 0372829a6cdcf4048864aefb5257a6d9,
    type: 3}
  m_PrefabInternal: {fileID: 114514820}
--- !u!1 &201706798
GameObject:
  m_ObjectHideFlags: 0
  m_CorrespondingSourceObject: {fileID: 0}
  m_PrefabInternal: {fileID: 0}
  serializedVersion: 6
  m_Component:
  - component: {fileID: 201706799}
  - component: {fileID: 201706802}
  - component: {fileID: 201706801}
  - component: {fileID: 201706800}
  m_Layer: 0
  m_Name: Plane (10)
  m_TagString: Untagged
  m_Icon: {fileID: 0}
  m_NavMeshLayer: 0
  m_StaticEditorFlags: 0
  m_IsActive: 1
--- !u!4 &201706799
Transform:
  m_ObjectHideFlags: 0
  m_CorrespondingSourceObject: {fileID: 0}
  m_PrefabInternal: {fileID: 0}
  m_GameObject: {fileID: 201706798}
  m_LocalRotation: {x: 0.6823545, y: -0, z: -0, w: 0.73102146}
  m_LocalPosition: {x: 0.19, y: 4.16, z: -0.14}
  m_LocalScale: {x: 0.12428, y: 0.12428003, z: 0.12428003}
  m_Children: []
  m_Father: {fileID: 1350006254}
  m_RootOrder: 1
  m_LocalEulerAnglesHint: {x: 86.05601, y: 0, z: 0}
--- !u!23 &201706800
MeshRenderer:
  m_ObjectHideFlags: 0
  m_CorrespondingSourceObject: {fileID: 0}
  m_PrefabInternal: {fileID: 0}
  m_GameObject: {fileID: 201706798}
  m_Enabled: 1
  m_CastShadows: 1
  m_ReceiveShadows: 1
  m_DynamicOccludee: 1
  m_MotionVectors: 1
  m_LightProbeUsage: 1
  m_ReflectionProbeUsage: 1
  m_RenderingLayerMask: 4294967295
  m_Materials:
  - {fileID: 2100000, guid: f21b9bc14eb50754297c08f7e7495170, type: 2}
  m_StaticBatchInfo:
    firstSubMesh: 0
    subMeshCount: 0
  m_StaticBatchRoot: {fileID: 0}
  m_ProbeAnchor: {fileID: 0}
  m_LightProbeVolumeOverride: {fileID: 0}
  m_ScaleInLightmap: 1
  m_PreserveUVs: 1
  m_IgnoreNormalsForChartDetection: 0
  m_ImportantGI: 0
  m_StitchLightmapSeams: 0
  m_SelectedEditorRenderState: 3
  m_MinimumChartSize: 4
  m_AutoUVMaxDistance: 0.5
  m_AutoUVMaxAngle: 89
  m_LightmapParameters: {fileID: 0}
  m_SortingLayerID: 0
  m_SortingLayer: 0
  m_SortingOrder: 0
--- !u!64 &201706801
MeshCollider:
  m_ObjectHideFlags: 0
  m_CorrespondingSourceObject: {fileID: 0}
  m_PrefabInternal: {fileID: 0}
  m_GameObject: {fileID: 201706798}
  m_Material: {fileID: 0}
  m_IsTrigger: 0
  m_Enabled: 1
  serializedVersion: 3
  m_Convex: 0
  m_CookingOptions: 14
  m_SkinWidth: 0.01
  m_Mesh: {fileID: 10209, guid: 0000000000000000e000000000000000, type: 0}
--- !u!33 &201706802
MeshFilter:
  m_ObjectHideFlags: 0
  m_CorrespondingSourceObject: {fileID: 0}
  m_PrefabInternal: {fileID: 0}
  m_GameObject: {fileID: 201706798}
  m_Mesh: {fileID: 10209, guid: 0000000000000000e000000000000000, type: 0}
--- !u!1 &206883340
GameObject:
  m_ObjectHideFlags: 0
  m_CorrespondingSourceObject: {fileID: 0}
  m_PrefabInternal: {fileID: 0}
  serializedVersion: 6
  m_Component:
  - component: {fileID: 206883342}
  - component: {fileID: 206883341}
  m_Layer: 0
  m_Name: Directional Light
  m_TagString: Untagged
  m_Icon: {fileID: 0}
  m_NavMeshLayer: 0
  m_StaticEditorFlags: 0
  m_IsActive: 1
--- !u!108 &206883341
Light:
  m_ObjectHideFlags: 0
  m_CorrespondingSourceObject: {fileID: 0}
  m_PrefabInternal: {fileID: 0}
  m_GameObject: {fileID: 206883340}
  m_Enabled: 1
  serializedVersion: 8
  m_Type: 1
  m_Color: {r: 1, g: 0.95686275, b: 0.8392157, a: 1}
  m_Intensity: 1
  m_Range: 10
  m_SpotAngle: 30
  m_CookieSize: 10
  m_Shadows:
    m_Type: 2
    m_Resolution: -1
    m_CustomResolution: -1
    m_Strength: 1
    m_Bias: 0.05
    m_NormalBias: 0.4
    m_NearPlane: 0.2
  m_Cookie: {fileID: 0}
  m_DrawHalo: 0
  m_Flare: {fileID: 0}
  m_RenderMode: 0
  m_CullingMask:
    serializedVersion: 2
    m_Bits: 4294967295
  m_Lightmapping: 4
  m_LightShadowCasterMode: 0
  m_AreaSize: {x: 1, y: 1}
  m_BounceIntensity: 1
  m_ColorTemperature: 6570
  m_UseColorTemperature: 0
  m_ShadowRadius: 0
  m_ShadowAngle: 0
--- !u!4 &206883342
Transform:
  m_ObjectHideFlags: 0
  m_CorrespondingSourceObject: {fileID: 0}
  m_PrefabInternal: {fileID: 0}
  m_GameObject: {fileID: 206883340}
  m_LocalRotation: {x: 0.16084272, y: -0.838104, z: 0.3908143, w: 0.34492832}
  m_LocalPosition: {x: 0, y: 3, z: 0}
  m_LocalScale: {x: 1, y: 1, z: 1}
  m_Children: []
  m_Father: {fileID: 0}
  m_RootOrder: 1
  m_LocalEulerAnglesHint: {x: 50, y: -135.26, z: 0}
--- !u!1001 &265863940
Prefab:
  m_ObjectHideFlags: 0
  serializedVersion: 2
  m_Modification:
    m_TransformParent: {fileID: 1406474175}
    m_Modifications:
    - target: {fileID: 4436137686616276, guid: f022dd2ff2b23c14ea58cec9413d5e7c, type: 2}
      propertyPath: m_LocalPosition.x
      value: 8.26
      objectReference: {fileID: 0}
    - target: {fileID: 4436137686616276, guid: f022dd2ff2b23c14ea58cec9413d5e7c, type: 2}
      propertyPath: m_LocalPosition.y
      value: 0.79
      objectReference: {fileID: 0}
    - target: {fileID: 4436137686616276, guid: f022dd2ff2b23c14ea58cec9413d5e7c, type: 2}
      propertyPath: m_LocalPosition.z
      value: -1.899
      objectReference: {fileID: 0}
    - target: {fileID: 4436137686616276, guid: f022dd2ff2b23c14ea58cec9413d5e7c, type: 2}
      propertyPath: m_LocalRotation.x
      value: 0.000000081460335
      objectReference: {fileID: 0}
    - target: {fileID: 4436137686616276, guid: f022dd2ff2b23c14ea58cec9413d5e7c, type: 2}
      propertyPath: m_LocalRotation.y
      value: -0
      objectReference: {fileID: 0}
    - target: {fileID: 4436137686616276, guid: f022dd2ff2b23c14ea58cec9413d5e7c, type: 2}
      propertyPath: m_LocalRotation.z
      value: -0
      objectReference: {fileID: 0}
    - target: {fileID: 4436137686616276, guid: f022dd2ff2b23c14ea58cec9413d5e7c, type: 2}
      propertyPath: m_LocalRotation.w
      value: 1
      objectReference: {fileID: 0}
    - target: {fileID: 4436137686616276, guid: f022dd2ff2b23c14ea58cec9413d5e7c, type: 2}
      propertyPath: m_RootOrder
      value: 1
      objectReference: {fileID: 0}
    - target: {fileID: 23273521217732702, guid: f022dd2ff2b23c14ea58cec9413d5e7c,
        type: 2}
      propertyPath: m_Materials.Array.data[0]
      value: 
      objectReference: {fileID: 2100000, guid: b24acc6c725b9904c9496f0a027e1414, type: 2}
    - target: {fileID: 1726453799255924, guid: f022dd2ff2b23c14ea58cec9413d5e7c, type: 2}
      propertyPath: m_Name
      value: prfb_hyhammer_mobile
      objectReference: {fileID: 0}
    m_RemovedComponents: []
  m_SourcePrefab: {fileID: 100100000, guid: f022dd2ff2b23c14ea58cec9413d5e7c, type: 2}
  m_IsPrefabAsset: 0
--- !u!1 &266842020
GameObject:
  m_ObjectHideFlags: 0
  m_CorrespondingSourceObject: {fileID: 0}
  m_PrefabInternal: {fileID: 0}
  serializedVersion: 6
  m_Component:
  - component: {fileID: 266842023}
  - component: {fileID: 266842022}
  - component: {fileID: 266842021}
  m_Layer: 0
  m_Name: New Text (1)
  m_TagString: Untagged
  m_Icon: {fileID: 0}
  m_NavMeshLayer: 0
  m_StaticEditorFlags: 0
  m_IsActive: 1
--- !u!102 &266842021
TextMesh:
  serializedVersion: 3
  m_ObjectHideFlags: 0
  m_CorrespondingSourceObject: {fileID: 0}
  m_PrefabInternal: {fileID: 0}
  m_GameObject: {fileID: 266842020}
  m_Text: 'low res texture

'
  m_OffsetZ: 0
  m_CharacterSize: 1.06
  m_LineSpacing: 1
  m_Anchor: 0
  m_Alignment: 0
  m_TabSize: 4
  m_FontSize: 0
  m_FontStyle: 0
  m_RichText: 1
  m_Font: {fileID: 10102, guid: 0000000000000000e000000000000000, type: 0}
  m_Color:
    serializedVersion: 2
    rgba: 4294967295
--- !u!23 &266842022
MeshRenderer:
  m_ObjectHideFlags: 0
  m_CorrespondingSourceObject: {fileID: 0}
  m_PrefabInternal: {fileID: 0}
  m_GameObject: {fileID: 266842020}
  m_Enabled: 1
  m_CastShadows: 1
  m_ReceiveShadows: 1
  m_DynamicOccludee: 1
  m_MotionVectors: 1
  m_LightProbeUsage: 1
  m_ReflectionProbeUsage: 1
  m_RenderingLayerMask: 4294967295
  m_Materials:
  - {fileID: 10100, guid: 0000000000000000e000000000000000, type: 0}
  m_StaticBatchInfo:
    firstSubMesh: 0
    subMeshCount: 0
  m_StaticBatchRoot: {fileID: 0}
  m_ProbeAnchor: {fileID: 0}
  m_LightProbeVolumeOverride: {fileID: 0}
  m_ScaleInLightmap: 1
  m_PreserveUVs: 0
  m_IgnoreNormalsForChartDetection: 0
  m_ImportantGI: 0
  m_StitchLightmapSeams: 0
  m_SelectedEditorRenderState: 3
  m_MinimumChartSize: 4
  m_AutoUVMaxDistance: 0.5
  m_AutoUVMaxAngle: 89
  m_LightmapParameters: {fileID: 0}
  m_SortingLayerID: 0
  m_SortingLayer: 0
  m_SortingOrder: 0
--- !u!4 &266842023
Transform:
  m_ObjectHideFlags: 0
  m_CorrespondingSourceObject: {fileID: 0}
  m_PrefabInternal: {fileID: 0}
  m_GameObject: {fileID: 266842020}
  m_LocalRotation: {x: -0, y: 1, z: -0, w: 0}
  m_LocalPosition: {x: 6.62, y: 2.213, z: -2.83}
  m_LocalScale: {x: 0.27436, y: 0.27436, z: 0.27436}
  m_Children: []
  m_Father: {fileID: 1513447593}
  m_RootOrder: 2
  m_LocalEulerAnglesHint: {x: 0, y: 180, z: 0}
--- !u!1 &398988694
GameObject:
  m_ObjectHideFlags: 0
  m_CorrespondingSourceObject: {fileID: 0}
  m_PrefabInternal: {fileID: 0}
  serializedVersion: 6
  m_Component:
  - component: {fileID: 398988695}
  - component: {fileID: 398988698}
  - component: {fileID: 398988697}
  - component: {fileID: 398988696}
  m_Layer: 0
  m_Name: Plane (18)
  m_TagString: Untagged
  m_Icon: {fileID: 0}
  m_NavMeshLayer: 0
  m_StaticEditorFlags: 0
  m_IsActive: 1
--- !u!4 &398988695
Transform:
  m_ObjectHideFlags: 0
  m_CorrespondingSourceObject: {fileID: 0}
  m_PrefabInternal: {fileID: 0}
  m_GameObject: {fileID: 398988694}
  m_LocalRotation: {x: 0.6823545, y: -0, z: -0, w: 0.73102146}
  m_LocalPosition: {x: 0.13, y: 2.73, z: -0.04}
  m_LocalScale: {x: 0.12428, y: 0.12428003, z: 0.12428003}
  m_Children: []
  m_Father: {fileID: 1350006254}
  m_RootOrder: 6
  m_LocalEulerAnglesHint: {x: 86.05601, y: 0, z: 0}
--- !u!23 &398988696
MeshRenderer:
  m_ObjectHideFlags: 0
  m_CorrespondingSourceObject: {fileID: 0}
  m_PrefabInternal: {fileID: 0}
  m_GameObject: {fileID: 398988694}
  m_Enabled: 1
  m_CastShadows: 1
  m_ReceiveShadows: 1
  m_DynamicOccludee: 1
  m_MotionVectors: 1
  m_LightProbeUsage: 1
  m_ReflectionProbeUsage: 1
  m_RenderingLayerMask: 4294967295
  m_Materials:
  - {fileID: 2100000, guid: 6cf744df8d5df444aab8ed6761ec0a79, type: 2}
  m_StaticBatchInfo:
    firstSubMesh: 0
    subMeshCount: 0
  m_StaticBatchRoot: {fileID: 0}
  m_ProbeAnchor: {fileID: 0}
  m_LightProbeVolumeOverride: {fileID: 0}
  m_ScaleInLightmap: 1
  m_PreserveUVs: 1
  m_IgnoreNormalsForChartDetection: 0
  m_ImportantGI: 0
  m_StitchLightmapSeams: 0
  m_SelectedEditorRenderState: 3
  m_MinimumChartSize: 4
  m_AutoUVMaxDistance: 0.5
  m_AutoUVMaxAngle: 89
  m_LightmapParameters: {fileID: 0}
  m_SortingLayerID: 0
  m_SortingLayer: 0
  m_SortingOrder: 0
--- !u!64 &398988697
MeshCollider:
  m_ObjectHideFlags: 0
  m_CorrespondingSourceObject: {fileID: 0}
  m_PrefabInternal: {fileID: 0}
  m_GameObject: {fileID: 398988694}
  m_Material: {fileID: 0}
  m_IsTrigger: 0
  m_Enabled: 1
  serializedVersion: 3
  m_Convex: 0
  m_CookingOptions: 14
  m_SkinWidth: 0.01
  m_Mesh: {fileID: 10209, guid: 0000000000000000e000000000000000, type: 0}
--- !u!33 &398988698
MeshFilter:
  m_ObjectHideFlags: 0
  m_CorrespondingSourceObject: {fileID: 0}
  m_PrefabInternal: {fileID: 0}
  m_GameObject: {fileID: 398988694}
  m_Mesh: {fileID: 10209, guid: 0000000000000000e000000000000000, type: 0}
--- !u!1001 &404388879
Prefab:
  m_ObjectHideFlags: 0
  serializedVersion: 2
  m_Modification:
    m_TransformParent: {fileID: 1406474175}
    m_Modifications:
    - target: {fileID: 4315461222553232, guid: 094ba6dd151834e42bc32cfdc2312f4d, type: 2}
      propertyPath: m_LocalPosition.x
      value: 8.88
      objectReference: {fileID: 0}
    - target: {fileID: 4315461222553232, guid: 094ba6dd151834e42bc32cfdc2312f4d, type: 2}
      propertyPath: m_LocalPosition.y
      value: 0.79
      objectReference: {fileID: 0}
    - target: {fileID: 4315461222553232, guid: 094ba6dd151834e42bc32cfdc2312f4d, type: 2}
      propertyPath: m_LocalPosition.z
      value: -3.469
      objectReference: {fileID: 0}
    - target: {fileID: 4315461222553232, guid: 094ba6dd151834e42bc32cfdc2312f4d, type: 2}
      propertyPath: m_LocalRotation.x
      value: -0
      objectReference: {fileID: 0}
    - target: {fileID: 4315461222553232, guid: 094ba6dd151834e42bc32cfdc2312f4d, type: 2}
      propertyPath: m_LocalRotation.y
      value: -0
      objectReference: {fileID: 0}
    - target: {fileID: 4315461222553232, guid: 094ba6dd151834e42bc32cfdc2312f4d, type: 2}
      propertyPath: m_LocalRotation.z
      value: -0
      objectReference: {fileID: 0}
    - target: {fileID: 4315461222553232, guid: 094ba6dd151834e42bc32cfdc2312f4d, type: 2}
      propertyPath: m_LocalRotation.w
      value: 1
      objectReference: {fileID: 0}
    - target: {fileID: 4315461222553232, guid: 094ba6dd151834e42bc32cfdc2312f4d, type: 2}
      propertyPath: m_RootOrder
      value: 4
      objectReference: {fileID: 0}
    - target: {fileID: 23576815521300320, guid: 094ba6dd151834e42bc32cfdc2312f4d,
        type: 2}
      propertyPath: m_Materials.Array.data[0]
      value: 
      objectReference: {fileID: 2100000, guid: b24acc6c725b9904c9496f0a027e1414, type: 2}
    - target: {fileID: 1347993628005170, guid: 094ba6dd151834e42bc32cfdc2312f4d, type: 2}
      propertyPath: m_Name
      value: prfb_hysaw01_mobile
      objectReference: {fileID: 0}
    m_RemovedComponents: []
  m_SourcePrefab: {fileID: 100100000, guid: 094ba6dd151834e42bc32cfdc2312f4d, type: 2}
  m_IsPrefabAsset: 0
--- !u!1 &600666910
GameObject:
  m_ObjectHideFlags: 0
  m_CorrespondingSourceObject: {fileID: 0}
  m_PrefabInternal: {fileID: 0}
  serializedVersion: 6
  m_Component:
  - component: {fileID: 600666914}
  - component: {fileID: 600666913}
  - component: {fileID: 600666912}
  - component: {fileID: 600666911}
  m_Layer: 0
  m_Name: Plane
  m_TagString: Untagged
  m_Icon: {fileID: 0}
  m_NavMeshLayer: 0
  m_StaticEditorFlags: 0
  m_IsActive: 1
--- !u!23 &600666911
MeshRenderer:
  m_ObjectHideFlags: 0
  m_CorrespondingSourceObject: {fileID: 0}
  m_PrefabInternal: {fileID: 0}
  m_GameObject: {fileID: 600666910}
  m_Enabled: 1
  m_CastShadows: 1
  m_ReceiveShadows: 1
  m_DynamicOccludee: 1
  m_MotionVectors: 1
  m_LightProbeUsage: 1
  m_ReflectionProbeUsage: 1
  m_RenderingLayerMask: 4294967295
  m_Materials:
  - {fileID: 2100000, guid: 3f704d545ca2d464a883d938cdaf3046, type: 2}
  m_StaticBatchInfo:
    firstSubMesh: 0
    subMeshCount: 0
  m_StaticBatchRoot: {fileID: 0}
  m_ProbeAnchor: {fileID: 0}
  m_LightProbeVolumeOverride: {fileID: 0}
  m_ScaleInLightmap: 1
  m_PreserveUVs: 1
  m_IgnoreNormalsForChartDetection: 0
  m_ImportantGI: 0
  m_StitchLightmapSeams: 0
  m_SelectedEditorRenderState: 3
  m_MinimumChartSize: 4
  m_AutoUVMaxDistance: 0.5
  m_AutoUVMaxAngle: 89
  m_LightmapParameters: {fileID: 0}
  m_SortingLayerID: 0
  m_SortingLayer: 0
  m_SortingOrder: 0
--- !u!64 &600666912
MeshCollider:
  m_ObjectHideFlags: 0
  m_CorrespondingSourceObject: {fileID: 0}
  m_PrefabInternal: {fileID: 0}
  m_GameObject: {fileID: 600666910}
  m_Material: {fileID: 0}
  m_IsTrigger: 0
  m_Enabled: 1
  serializedVersion: 3
  m_Convex: 0
  m_CookingOptions: 14
  m_SkinWidth: 0.01
  m_Mesh: {fileID: 10209, guid: 0000000000000000e000000000000000, type: 0}
--- !u!33 &600666913
MeshFilter:
  m_ObjectHideFlags: 0
  m_CorrespondingSourceObject: {fileID: 0}
  m_PrefabInternal: {fileID: 0}
  m_GameObject: {fileID: 600666910}
  m_Mesh: {fileID: 10209, guid: 0000000000000000e000000000000000, type: 0}
--- !u!4 &600666914
Transform:
  m_ObjectHideFlags: 0
  m_CorrespondingSourceObject: {fileID: 0}
  m_PrefabInternal: {fileID: 0}
  m_GameObject: {fileID: 600666910}
  m_LocalRotation: {x: -0, y: -0, z: -0, w: 1}
  m_LocalPosition: {x: -3.26, y: 0, z: -10.36}
  m_LocalScale: {x: 3.2616134, y: 3.2616136, z: 3.2616136}
  m_Children: []
  m_Father: {fileID: 0}
  m_RootOrder: 5
  m_LocalEulerAnglesHint: {x: 0, y: 0, z: 0}
--- !u!4 &665480995 stripped
Transform:
  m_CorrespondingSourceObject: {fileID: 4376046614137518, guid: 197e2f64daf07144aa6efe63124c7afe,
    type: 2}
  m_PrefabInternal: {fileID: 1180447764}
--- !u!1 &687474598
GameObject:
  m_ObjectHideFlags: 0
  m_CorrespondingSourceObject: {fileID: 0}
  m_PrefabInternal: {fileID: 0}
  serializedVersion: 6
  m_Component:
  - component: {fileID: 687474599}
  - component: {fileID: 687474602}
  - component: {fileID: 687474601}
  - component: {fileID: 687474600}
  m_Layer: 0
  m_Name: Plane (21)
  m_TagString: Untagged
  m_Icon: {fileID: 0}
  m_NavMeshLayer: 0
  m_StaticEditorFlags: 0
  m_IsActive: 1
--- !u!4 &687474599
Transform:
  m_ObjectHideFlags: 0
  m_CorrespondingSourceObject: {fileID: 0}
  m_PrefabInternal: {fileID: 0}
  m_GameObject: {fileID: 687474598}
  m_LocalRotation: {x: 0.6823545, y: -0, z: -0, w: 0.73102146}
  m_LocalPosition: {x: -1.33, y: 1.32, z: 0.06}
  m_LocalScale: {x: 0.12428, y: 0.12428003, z: 0.12428003}
  m_Children: []
  m_Father: {fileID: 1350006254}
  m_RootOrder: 9
  m_LocalEulerAnglesHint: {x: 86.05601, y: 0, z: 0}
--- !u!23 &687474600
MeshRenderer:
  m_ObjectHideFlags: 0
  m_CorrespondingSourceObject: {fileID: 0}
  m_PrefabInternal: {fileID: 0}
  m_GameObject: {fileID: 687474598}
  m_Enabled: 1
  m_CastShadows: 1
  m_ReceiveShadows: 1
  m_DynamicOccludee: 1
  m_MotionVectors: 1
  m_LightProbeUsage: 1
  m_ReflectionProbeUsage: 1
  m_RenderingLayerMask: 4294967295
  m_Materials:
  - {fileID: 2100000, guid: c42be5eb4cfe59d4cb7db745ed977fa7, type: 2}
  m_StaticBatchInfo:
    firstSubMesh: 0
    subMeshCount: 0
  m_StaticBatchRoot: {fileID: 0}
  m_ProbeAnchor: {fileID: 0}
  m_LightProbeVolumeOverride: {fileID: 0}
  m_ScaleInLightmap: 1
  m_PreserveUVs: 1
  m_IgnoreNormalsForChartDetection: 0
  m_ImportantGI: 0
  m_StitchLightmapSeams: 0
  m_SelectedEditorRenderState: 3
  m_MinimumChartSize: 4
  m_AutoUVMaxDistance: 0.5
  m_AutoUVMaxAngle: 89
  m_LightmapParameters: {fileID: 0}
  m_SortingLayerID: 0
  m_SortingLayer: 0
  m_SortingOrder: 0
--- !u!64 &687474601
MeshCollider:
  m_ObjectHideFlags: 0
  m_CorrespondingSourceObject: {fileID: 0}
  m_PrefabInternal: {fileID: 0}
  m_GameObject: {fileID: 687474598}
  m_Material: {fileID: 0}
  m_IsTrigger: 0
  m_Enabled: 1
  serializedVersion: 3
  m_Convex: 0
  m_CookingOptions: 14
  m_SkinWidth: 0.01
  m_Mesh: {fileID: 10209, guid: 0000000000000000e000000000000000, type: 0}
--- !u!33 &687474602
MeshFilter:
  m_ObjectHideFlags: 0
  m_CorrespondingSourceObject: {fileID: 0}
  m_PrefabInternal: {fileID: 0}
  m_GameObject: {fileID: 687474598}
  m_Mesh: {fileID: 10209, guid: 0000000000000000e000000000000000, type: 0}
--- !u!4 &728223843 stripped
Transform:
  m_CorrespondingSourceObject: {fileID: 4879105270005734, guid: a2a0c3f8b18584245b049e920b8ed8c6,
    type: 2}
  m_PrefabInternal: {fileID: 1156136180}
--- !u!1001 &754683772
Prefab:
  m_ObjectHideFlags: 0
  serializedVersion: 2
  m_Modification:
    m_TransformParent: {fileID: 1406474175}
    m_Modifications:
    - target: {fileID: 4879105270005734, guid: a2a0c3f8b18584245b049e920b8ed8c6, type: 2}
      propertyPath: m_LocalPosition.x
      value: 0.747
      objectReference: {fileID: 0}
    - target: {fileID: 4879105270005734, guid: a2a0c3f8b18584245b049e920b8ed8c6, type: 2}
      propertyPath: m_LocalPosition.y
      value: 0.79
      objectReference: {fileID: 0}
    - target: {fileID: 4879105270005734, guid: a2a0c3f8b18584245b049e920b8ed8c6, type: 2}
      propertyPath: m_LocalPosition.z
      value: -0.854
      objectReference: {fileID: 0}
    - target: {fileID: 4879105270005734, guid: a2a0c3f8b18584245b049e920b8ed8c6, type: 2}
      propertyPath: m_LocalRotation.x
      value: -0
      objectReference: {fileID: 0}
    - target: {fileID: 4879105270005734, guid: a2a0c3f8b18584245b049e920b8ed8c6, type: 2}
      propertyPath: m_LocalRotation.y
      value: -0
      objectReference: {fileID: 0}
    - target: {fileID: 4879105270005734, guid: a2a0c3f8b18584245b049e920b8ed8c6, type: 2}
      propertyPath: m_LocalRotation.z
      value: -0
      objectReference: {fileID: 0}
    - target: {fileID: 4879105270005734, guid: a2a0c3f8b18584245b049e920b8ed8c6, type: 2}
      propertyPath: m_LocalRotation.w
      value: 1
      objectReference: {fileID: 0}
    - target: {fileID: 4879105270005734, guid: a2a0c3f8b18584245b049e920b8ed8c6, type: 2}
      propertyPath: m_RootOrder
      value: 6
      objectReference: {fileID: 0}
    - target: {fileID: 1966817127179040, guid: a2a0c3f8b18584245b049e920b8ed8c6, type: 2}
      propertyPath: m_Name
      value: prfb_hyaxe01
      objectReference: {fileID: 0}
    m_RemovedComponents: []
  m_SourcePrefab: {fileID: 100100000, guid: a2a0c3f8b18584245b049e920b8ed8c6, type: 2}
  m_IsPrefabAsset: 0
--- !u!4 &754683773 stripped
Transform:
  m_CorrespondingSourceObject: {fileID: 4879105270005734, guid: a2a0c3f8b18584245b049e920b8ed8c6,
    type: 2}
  m_PrefabInternal: {fileID: 754683772}
--- !u!4 &829430299 stripped
Transform:
  m_CorrespondingSourceObject: {fileID: 4481455733507050, guid: e634428e960c66a489d6e8c512aeb2f9,
    type: 2}
  m_PrefabInternal: {fileID: 973077495}
--- !u!1001 &956653884
Prefab:
  m_ObjectHideFlags: 0
  serializedVersion: 2
  m_Modification:
    m_TransformParent: {fileID: 1513447593}
    m_Modifications:
    - target: {fileID: 400028, guid: 0372829a6cdcf4048864aefb5257a6d9, type: 3}
      propertyPath: m_LocalPosition.x
      value: 5.06
      objectReference: {fileID: 0}
    - target: {fileID: 400028, guid: 0372829a6cdcf4048864aefb5257a6d9, type: 3}
      propertyPath: m_LocalPosition.y
      value: 0
      objectReference: {fileID: 0}
    - target: {fileID: 400028, guid: 0372829a6cdcf4048864aefb5257a6d9, type: 3}
      propertyPath: m_LocalPosition.z
      value: -2.097
      objectReference: {fileID: 0}
    - target: {fileID: 400028, guid: 0372829a6cdcf4048864aefb5257a6d9, type: 3}
      propertyPath: m_LocalRotation.x
      value: -0
      objectReference: {fileID: 0}
    - target: {fileID: 400028, guid: 0372829a6cdcf4048864aefb5257a6d9, type: 3}
      propertyPath: m_LocalRotation.y
      value: -0
      objectReference: {fileID: 0}
    - target: {fileID: 400028, guid: 0372829a6cdcf4048864aefb5257a6d9, type: 3}
      propertyPath: m_LocalRotation.z
      value: -0
      objectReference: {fileID: 0}
    - target: {fileID: 400028, guid: 0372829a6cdcf4048864aefb5257a6d9, type: 3}
      propertyPath: m_LocalRotation.w
      value: 1
      objectReference: {fileID: 0}
    - target: {fileID: 400028, guid: 0372829a6cdcf4048864aefb5257a6d9, type: 3}
      propertyPath: m_RootOrder
      value: 1
      objectReference: {fileID: 0}
    - target: {fileID: 13700000, guid: 0372829a6cdcf4048864aefb5257a6d9, type: 3}
      propertyPath: m_Materials.Array.data[6]
      value: 
      objectReference: {fileID: 2100000, guid: e808ada04aa116a4d90099e1acd7dcb3, type: 2}
    - target: {fileID: 13700000, guid: 0372829a6cdcf4048864aefb5257a6d9, type: 3}
      propertyPath: m_Materials.Array.data[3]
      value: 
      objectReference: {fileID: 2100000, guid: 2f4769ef8b2da8d4d9f5c7b36a31151b, type: 2}
    - target: {fileID: 13700000, guid: 0372829a6cdcf4048864aefb5257a6d9, type: 3}
      propertyPath: m_Materials.Array.data[1]
      value: 
      objectReference: {fileID: 2100000, guid: 2f4769ef8b2da8d4d9f5c7b36a31151b, type: 2}
    - target: {fileID: 13700000, guid: 0372829a6cdcf4048864aefb5257a6d9, type: 3}
      propertyPath: m_Materials.Array.data[4]
      value: 
      objectReference: {fileID: 2100000, guid: 2f4769ef8b2da8d4d9f5c7b36a31151b, type: 2}
    - target: {fileID: 13700000, guid: 0372829a6cdcf4048864aefb5257a6d9, type: 3}
      propertyPath: m_Materials.Array.data[2]
      value: 
      objectReference: {fileID: 2100000, guid: 2f4769ef8b2da8d4d9f5c7b36a31151b, type: 2}
    - target: {fileID: 13700000, guid: 0372829a6cdcf4048864aefb5257a6d9, type: 3}
      propertyPath: m_Materials.Array.data[7]
      value: 
      objectReference: {fileID: 2100000, guid: c6145666d94cf5c48ac29d10f8bdb352, type: 2}
    - target: {fileID: 100028, guid: 0372829a6cdcf4048864aefb5257a6d9, type: 3}
      propertyPath: m_Name
      value: Hyahaa_v1_variable_T_mobile
      objectReference: {fileID: 0}
    m_RemovedComponents: []
  m_SourcePrefab: {fileID: 100100000, guid: 0372829a6cdcf4048864aefb5257a6d9, type: 3}
  m_IsPrefabAsset: 0
--- !u!4 &956653885 stripped
Transform:
  m_CorrespondingSourceObject: {fileID: 400028, guid: 0372829a6cdcf4048864aefb5257a6d9,
    type: 3}
  m_PrefabInternal: {fileID: 956653884}
--- !u!1001 &964143922
Prefab:
  m_ObjectHideFlags: 0
  serializedVersion: 2
  m_Modification:
    m_TransformParent: {fileID: 1406474175}
    m_Modifications:
    - target: {fileID: 4376046614137518, guid: 197e2f64daf07144aa6efe63124c7afe, type: 2}
      propertyPath: m_LocalPosition.x
      value: 1.539
      objectReference: {fileID: 0}
    - target: {fileID: 4376046614137518, guid: 197e2f64daf07144aa6efe63124c7afe, type: 2}
      propertyPath: m_LocalPosition.y
      value: 0.755
      objectReference: {fileID: 0}
    - target: {fileID: 4376046614137518, guid: 197e2f64daf07144aa6efe63124c7afe, type: 2}
      propertyPath: m_LocalPosition.z
      value: -1.195
      objectReference: {fileID: 0}
    - target: {fileID: 4376046614137518, guid: 197e2f64daf07144aa6efe63124c7afe, type: 2}
      propertyPath: m_LocalRotation.x
      value: -0
      objectReference: {fileID: 0}
    - target: {fileID: 4376046614137518, guid: 197e2f64daf07144aa6efe63124c7afe, type: 2}
      propertyPath: m_LocalRotation.y
      value: -0
      objectReference: {fileID: 0}
    - target: {fileID: 4376046614137518, guid: 197e2f64daf07144aa6efe63124c7afe, type: 2}
      propertyPath: m_LocalRotation.z
      value: -0
      objectReference: {fileID: 0}
    - target: {fileID: 4376046614137518, guid: 197e2f64daf07144aa6efe63124c7afe, type: 2}
      propertyPath: m_LocalRotation.w
      value: 1
      objectReference: {fileID: 0}
    - target: {fileID: 4376046614137518, guid: 197e2f64daf07144aa6efe63124c7afe, type: 2}
      propertyPath: m_RootOrder
      value: 5
      objectReference: {fileID: 0}
    - target: {fileID: 1944182632980766, guid: 197e2f64daf07144aa6efe63124c7afe, type: 2}
      propertyPath: m_Name
      value: prfb_hvmace02
      objectReference: {fileID: 0}
    m_RemovedComponents: []
  m_SourcePrefab: {fileID: 100100000, guid: 197e2f64daf07144aa6efe63124c7afe, type: 2}
  m_IsPrefabAsset: 0
--- !u!4 &964143923 stripped
Transform:
  m_CorrespondingSourceObject: {fileID: 4376046614137518, guid: 197e2f64daf07144aa6efe63124c7afe,
    type: 2}
  m_PrefabInternal: {fileID: 964143922}
--- !u!1001 &973077495
Prefab:
  m_ObjectHideFlags: 0
  serializedVersion: 2
  m_Modification:
    m_TransformParent: {fileID: 1406474175}
    m_Modifications:
    - target: {fileID: 4481455733507050, guid: e634428e960c66a489d6e8c512aeb2f9, type: 2}
      propertyPath: m_LocalPosition.x
      value: 9.45
      objectReference: {fileID: 0}
    - target: {fileID: 4481455733507050, guid: e634428e960c66a489d6e8c512aeb2f9, type: 2}
      propertyPath: m_LocalPosition.y
      value: 0.79
      objectReference: {fileID: 0}
    - target: {fileID: 4481455733507050, guid: e634428e960c66a489d6e8c512aeb2f9, type: 2}
      propertyPath: m_LocalPosition.z
      value: -2.921
      objectReference: {fileID: 0}
    - target: {fileID: 4481455733507050, guid: e634428e960c66a489d6e8c512aeb2f9, type: 2}
      propertyPath: m_LocalRotation.x
      value: -0
      objectReference: {fileID: 0}
    - target: {fileID: 4481455733507050, guid: e634428e960c66a489d6e8c512aeb2f9, type: 2}
      propertyPath: m_LocalRotation.y
      value: -0
      objectReference: {fileID: 0}
    - target: {fileID: 4481455733507050, guid: e634428e960c66a489d6e8c512aeb2f9, type: 2}
      propertyPath: m_LocalRotation.z
      value: -0
      objectReference: {fileID: 0}
    - target: {fileID: 4481455733507050, guid: e634428e960c66a489d6e8c512aeb2f9, type: 2}
      propertyPath: m_LocalRotation.w
      value: 1
      objectReference: {fileID: 0}
    - target: {fileID: 4481455733507050, guid: e634428e960c66a489d6e8c512aeb2f9, type: 2}
      propertyPath: m_RootOrder
      value: 3
      objectReference: {fileID: 0}
    - target: {fileID: 23786306094932330, guid: e634428e960c66a489d6e8c512aeb2f9,
        type: 2}
      propertyPath: m_Materials.Array.data[0]
      value: 
      objectReference: {fileID: 2100000, guid: b24acc6c725b9904c9496f0a027e1414, type: 2}
    - target: {fileID: 1818082159732144, guid: e634428e960c66a489d6e8c512aeb2f9, type: 2}
      propertyPath: m_Name
      value: prfb_hymachete01_mobile
      objectReference: {fileID: 0}
    m_RemovedComponents: []
  m_SourcePrefab: {fileID: 100100000, guid: e634428e960c66a489d6e8c512aeb2f9, type: 2}
  m_IsPrefabAsset: 0
--- !u!4 &1000508388 stripped
Transform:
  m_CorrespondingSourceObject: {fileID: 4315461222553232, guid: 094ba6dd151834e42bc32cfdc2312f4d,
    type: 2}
  m_PrefabInternal: {fileID: 404388879}
--- !u!1 &1055811723
GameObject:
  m_ObjectHideFlags: 0
  m_CorrespondingSourceObject: {fileID: 0}
  m_PrefabInternal: {fileID: 0}
  serializedVersion: 6
  m_Component:
  - component: {fileID: 1055811724}
  - component: {fileID: 1055811726}
  - component: {fileID: 1055811725}
  m_Layer: 0
  m_Name: New Text
  m_TagString: Untagged
  m_Icon: {fileID: 0}
  m_NavMeshLayer: 0
  m_StaticEditorFlags: 0
  m_IsActive: 1
--- !u!4 &1055811724
Transform:
  m_ObjectHideFlags: 0
  m_CorrespondingSourceObject: {fileID: 0}
  m_PrefabInternal: {fileID: 0}
  m_GameObject: {fileID: 1055811723}
  m_LocalRotation: {x: 0, y: 1, z: 0, w: 0}
  m_LocalPosition: {x: 2.22, y: 5.35, z: -0.21}
  m_LocalScale: {x: 0.27435657, y: 0.27435675, z: 0.27435675}
  m_Children: []
  m_Father: {fileID: 1350006254}
  m_RootOrder: 0
  m_LocalEulerAnglesHint: {x: 0, y: 180, z: 0}
--- !u!102 &1055811725
TextMesh:
  serializedVersion: 3
  m_ObjectHideFlags: 0
  m_CorrespondingSourceObject: {fileID: 0}
  m_PrefabInternal: {fileID: 0}
  m_GameObject: {fileID: 1055811723}
  m_Text: 'color variation materials

'
  m_OffsetZ: 0
  m_CharacterSize: 1
  m_LineSpacing: 1
  m_Anchor: 0
  m_Alignment: 0
  m_TabSize: 4
  m_FontSize: 0
  m_FontStyle: 0
  m_RichText: 1
  m_Font: {fileID: 10102, guid: 0000000000000000e000000000000000, type: 0}
  m_Color:
    serializedVersion: 2
    rgba: 4294967295
--- !u!23 &1055811726
MeshRenderer:
  m_ObjectHideFlags: 0
  m_CorrespondingSourceObject: {fileID: 0}
  m_PrefabInternal: {fileID: 0}
  m_GameObject: {fileID: 1055811723}
  m_Enabled: 1
  m_CastShadows: 1
  m_ReceiveShadows: 1
  m_DynamicOccludee: 1
  m_MotionVectors: 1
  m_LightProbeUsage: 1
  m_ReflectionProbeUsage: 1
  m_RenderingLayerMask: 4294967295
  m_Materials:
  - {fileID: 10100, guid: 0000000000000000e000000000000000, type: 0}
  m_StaticBatchInfo:
    firstSubMesh: 0
    subMeshCount: 0
  m_StaticBatchRoot: {fileID: 0}
  m_ProbeAnchor: {fileID: 0}
  m_LightProbeVolumeOverride: {fileID: 0}
  m_ScaleInLightmap: 1
  m_PreserveUVs: 0
  m_IgnoreNormalsForChartDetection: 0
  m_ImportantGI: 0
  m_StitchLightmapSeams: 0
  m_SelectedEditorRenderState: 3
  m_MinimumChartSize: 4
  m_AutoUVMaxDistance: 0.5
  m_AutoUVMaxAngle: 89
  m_LightmapParameters: {fileID: 0}
  m_SortingLayerID: 0
  m_SortingLayer: 0
  m_SortingOrder: 0
--- !u!1001 &1096573352
Prefab:
  m_ObjectHideFlags: 0
  serializedVersion: 2
  m_Modification:
    m_TransformParent: {fileID: 1350006254}
    m_Modifications:
    - target: {fileID: 13700000, guid: 0372829a6cdcf4048864aefb5257a6d9, type: 3}
      propertyPath: m_BlendShapeWeights.Array.size
      value: 37
      objectReference: {fileID: 0}
    - target: {fileID: 400028, guid: 0372829a6cdcf4048864aefb5257a6d9, type: 3}
      propertyPath: m_LocalPosition.x
      value: 1.03
      objectReference: {fileID: 0}
    - target: {fileID: 400028, guid: 0372829a6cdcf4048864aefb5257a6d9, type: 3}
      propertyPath: m_LocalPosition.y
      value: 0
      objectReference: {fileID: 0}
    - target: {fileID: 400028, guid: 0372829a6cdcf4048864aefb5257a6d9, type: 3}
      propertyPath: m_LocalPosition.z
      value: 0.523
      objectReference: {fileID: 0}
    - target: {fileID: 400028, guid: 0372829a6cdcf4048864aefb5257a6d9, type: 3}
      propertyPath: m_LocalRotation.x
      value: -0
      objectReference: {fileID: 0}
    - target: {fileID: 400028, guid: 0372829a6cdcf4048864aefb5257a6d9, type: 3}
      propertyPath: m_LocalRotation.y
      value: -0
      objectReference: {fileID: 0}
    - target: {fileID: 400028, guid: 0372829a6cdcf4048864aefb5257a6d9, type: 3}
      propertyPath: m_LocalRotation.z
      value: -0
      objectReference: {fileID: 0}
    - target: {fileID: 400028, guid: 0372829a6cdcf4048864aefb5257a6d9, type: 3}
      propertyPath: m_LocalRotation.w
      value: 1
      objectReference: {fileID: 0}
    - target: {fileID: 400028, guid: 0372829a6cdcf4048864aefb5257a6d9, type: 3}
      propertyPath: m_RootOrder
      value: 10
      objectReference: {fileID: 0}
    - target: {fileID: 13700000, guid: 0372829a6cdcf4048864aefb5257a6d9, type: 3}
      propertyPath: m_Materials.Array.data[6]
      value: 
      objectReference: {fileID: 2100000, guid: e52beaa4aab34c142addc7c051e1e4ae, type: 2}
    - target: {fileID: 13700000, guid: 0372829a6cdcf4048864aefb5257a6d9, type: 3}
      propertyPath: m_Materials.Array.data[3]
      value: 
      objectReference: {fileID: 2100000, guid: ec121aa38db49aa43a56eaaed82e342e, type: 2}
    - target: {fileID: 13700000, guid: 0372829a6cdcf4048864aefb5257a6d9, type: 3}
      propertyPath: m_Materials.Array.data[1]
      value: 
      objectReference: {fileID: 2100000, guid: ec121aa38db49aa43a56eaaed82e342e, type: 2}
    - target: {fileID: 13700000, guid: 0372829a6cdcf4048864aefb5257a6d9, type: 3}
      propertyPath: m_Materials.Array.data[4]
      value: 
      objectReference: {fileID: 2100000, guid: ec121aa38db49aa43a56eaaed82e342e, type: 2}
    - target: {fileID: 13700000, guid: 0372829a6cdcf4048864aefb5257a6d9, type: 3}
      propertyPath: m_Materials.Array.data[2]
      value: 
      objectReference: {fileID: 2100000, guid: ec121aa38db49aa43a56eaaed82e342e, type: 2}
    - target: {fileID: 13700000, guid: 0372829a6cdcf4048864aefb5257a6d9, type: 3}
      propertyPath: m_Materials.Array.data[7]
      value: 
      objectReference: {fileID: 2100000, guid: c6145666d94cf5c48ac29d10f8bdb352, type: 2}
    - target: {fileID: 100028, guid: 0372829a6cdcf4048864aefb5257a6d9, type: 3}
      propertyPath: m_Name
      value: Hyahaa_v1_variable_T (1)
      objectReference: {fileID: 0}
    - target: {fileID: 13700000, guid: 0372829a6cdcf4048864aefb5257a6d9, type: 3}
      propertyPath: m_BlendShapeWeights.Array.data[22]
      value: 100
      objectReference: {fileID: 0}
    - target: {fileID: 13700000, guid: 0372829a6cdcf4048864aefb5257a6d9, type: 3}
      propertyPath: m_BlendShapeWeights.Array.data[23]
      value: 100
      objectReference: {fileID: 0}
    - target: {fileID: 13700000, guid: 0372829a6cdcf4048864aefb5257a6d9, type: 3}
      propertyPath: m_BlendShapeWeights.Array.data[21]
      value: 100
      objectReference: {fileID: 0}
    - target: {fileID: 400014, guid: 0372829a6cdcf4048864aefb5257a6d9, type: 3}
      propertyPath: m_LocalScale.x
      value: 0.4429714
      objectReference: {fileID: 0}
    - target: {fileID: 400014, guid: 0372829a6cdcf4048864aefb5257a6d9, type: 3}
      propertyPath: m_LocalScale.y
      value: 0.4429714
      objectReference: {fileID: 0}
    - target: {fileID: 400014, guid: 0372829a6cdcf4048864aefb5257a6d9, type: 3}
      propertyPath: m_LocalScale.z
      value: 0.4429714
      objectReference: {fileID: 0}
    - target: {fileID: 400014, guid: 0372829a6cdcf4048864aefb5257a6d9, type: 3}
      propertyPath: m_LocalPosition.y
      value: 0.00094
      objectReference: {fileID: 0}
    - target: {fileID: 400014, guid: 0372829a6cdcf4048864aefb5257a6d9, type: 3}
      propertyPath: m_LocalPosition.z
      value: 0.00025
      objectReference: {fileID: 0}
    - target: {fileID: 400042, guid: 0372829a6cdcf4048864aefb5257a6d9, type: 3}
      propertyPath: m_LocalScale.x
      value: 0.24265403
      objectReference: {fileID: 0}
    - target: {fileID: 400042, guid: 0372829a6cdcf4048864aefb5257a6d9, type: 3}
      propertyPath: m_LocalScale.y
      value: 0.24265403
      objectReference: {fileID: 0}
    - target: {fileID: 400042, guid: 0372829a6cdcf4048864aefb5257a6d9, type: 3}
      propertyPath: m_LocalScale.z
      value: 0.24265403
      objectReference: {fileID: 0}
    - target: {fileID: 400042, guid: 0372829a6cdcf4048864aefb5257a6d9, type: 3}
      propertyPath: m_LocalPosition.x
      value: -0.0002
      objectReference: {fileID: 0}
    - target: {fileID: 400042, guid: 0372829a6cdcf4048864aefb5257a6d9, type: 3}
      propertyPath: m_LocalPosition.y
      value: 0.00031
      objectReference: {fileID: 0}
    - target: {fileID: 400042, guid: 0372829a6cdcf4048864aefb5257a6d9, type: 3}
      propertyPath: m_LocalPosition.z
      value: -0.00015
      objectReference: {fileID: 0}
    - target: {fileID: 400008, guid: 0372829a6cdcf4048864aefb5257a6d9, type: 3}
      propertyPath: m_LocalScale.x
      value: 0.32132262
      objectReference: {fileID: 0}
    - target: {fileID: 400008, guid: 0372829a6cdcf4048864aefb5257a6d9, type: 3}
      propertyPath: m_LocalScale.y
      value: 0.32132262
      objectReference: {fileID: 0}
    - target: {fileID: 400008, guid: 0372829a6cdcf4048864aefb5257a6d9, type: 3}
      propertyPath: m_LocalScale.z
      value: 0.3213226
      objectReference: {fileID: 0}
    - target: {fileID: 400008, guid: 0372829a6cdcf4048864aefb5257a6d9, type: 3}
      propertyPath: m_LocalPosition.x
      value: 0
      objectReference: {fileID: 0}
    - target: {fileID: 400008, guid: 0372829a6cdcf4048864aefb5257a6d9, type: 3}
      propertyPath: m_LocalPosition.y
      value: 0.00118
      objectReference: {fileID: 0}
    - target: {fileID: 400008, guid: 0372829a6cdcf4048864aefb5257a6d9, type: 3}
      propertyPath: m_LocalPosition.z
      value: 0.00001
      objectReference: {fileID: 0}
    - target: {fileID: 400004, guid: 0372829a6cdcf4048864aefb5257a6d9, type: 3}
      propertyPath: m_LocalScale.x
      value: 0.23600605
      objectReference: {fileID: 0}
    - target: {fileID: 400004, guid: 0372829a6cdcf4048864aefb5257a6d9, type: 3}
      propertyPath: m_LocalScale.y
      value: 0.23600605
      objectReference: {fileID: 0}
    - target: {fileID: 400004, guid: 0372829a6cdcf4048864aefb5257a6d9, type: 3}
      propertyPath: m_LocalScale.z
      value: 0.23600607
      objectReference: {fileID: 0}
    m_RemovedComponents: []
  m_SourcePrefab: {fileID: 100100000, guid: 0372829a6cdcf4048864aefb5257a6d9, type: 3}
  m_IsPrefabAsset: 0
--- !u!4 &1096573353 stripped
Transform:
  m_CorrespondingSourceObject: {fileID: 400028, guid: 0372829a6cdcf4048864aefb5257a6d9,
    type: 3}
  m_PrefabInternal: {fileID: 1096573352}
--- !u!1 &1137301321
GameObject:
  m_ObjectHideFlags: 0
  m_CorrespondingSourceObject: {fileID: 0}
  m_PrefabInternal: {fileID: 0}
  serializedVersion: 6
  m_Component:
  - component: {fileID: 1137301322}
  - component: {fileID: 1137301325}
  - component: {fileID: 1137301324}
  - component: {fileID: 1137301323}
  m_Layer: 0
  m_Name: Plane (20)
  m_TagString: Untagged
  m_Icon: {fileID: 0}
  m_NavMeshLayer: 0
  m_StaticEditorFlags: 0
  m_IsActive: 1
--- !u!4 &1137301322
Transform:
  m_ObjectHideFlags: 0
  m_CorrespondingSourceObject: {fileID: 0}
  m_PrefabInternal: {fileID: 0}
  m_GameObject: {fileID: 1137301321}
  m_LocalRotation: {x: 0.6823545, y: -0, z: -0, w: 0.73102146}
  m_LocalPosition: {x: 1.5, y: 1.33, z: 0.06}
  m_LocalScale: {x: 0.12428, y: 0.12428003, z: 0.12428003}
  m_Children: []
  m_Father: {fileID: 1350006254}
  m_RootOrder: 8
  m_LocalEulerAnglesHint: {x: 86.05601, y: 0, z: 0}
--- !u!23 &1137301323
MeshRenderer:
  m_ObjectHideFlags: 0
  m_CorrespondingSourceObject: {fileID: 0}
  m_PrefabInternal: {fileID: 0}
  m_GameObject: {fileID: 1137301321}
  m_Enabled: 1
  m_CastShadows: 1
  m_ReceiveShadows: 1
  m_DynamicOccludee: 1
  m_MotionVectors: 1
  m_LightProbeUsage: 1
  m_ReflectionProbeUsage: 1
  m_RenderingLayerMask: 4294967295
  m_Materials:
  - {fileID: 2100000, guid: 9e0a6f22b92dc5443885f4d2be4e65c8, type: 2}
  m_StaticBatchInfo:
    firstSubMesh: 0
    subMeshCount: 0
  m_StaticBatchRoot: {fileID: 0}
  m_ProbeAnchor: {fileID: 0}
  m_LightProbeVolumeOverride: {fileID: 0}
  m_ScaleInLightmap: 1
  m_PreserveUVs: 1
  m_IgnoreNormalsForChartDetection: 0
  m_ImportantGI: 0
  m_StitchLightmapSeams: 0
  m_SelectedEditorRenderState: 3
  m_MinimumChartSize: 4
  m_AutoUVMaxDistance: 0.5
  m_AutoUVMaxAngle: 89
  m_LightmapParameters: {fileID: 0}
  m_SortingLayerID: 0
  m_SortingLayer: 0
  m_SortingOrder: 0
--- !u!64 &1137301324
MeshCollider:
  m_ObjectHideFlags: 0
  m_CorrespondingSourceObject: {fileID: 0}
  m_PrefabInternal: {fileID: 0}
  m_GameObject: {fileID: 1137301321}
  m_Material: {fileID: 0}
  m_IsTrigger: 0
  m_Enabled: 1
  serializedVersion: 3
  m_Convex: 0
  m_CookingOptions: 14
  m_SkinWidth: 0.01
  m_Mesh: {fileID: 10209, guid: 0000000000000000e000000000000000, type: 0}
--- !u!33 &1137301325
MeshFilter:
  m_ObjectHideFlags: 0
  m_CorrespondingSourceObject: {fileID: 0}
  m_PrefabInternal: {fileID: 0}
  m_GameObject: {fileID: 1137301321}
  m_Mesh: {fileID: 10209, guid: 0000000000000000e000000000000000, type: 0}
--- !u!1001 &1156136180
Prefab:
  m_ObjectHideFlags: 0
  serializedVersion: 2
  m_Modification:
    m_TransformParent: {fileID: 1406474175}
    m_Modifications:
    - target: {fileID: 4879105270005734, guid: a2a0c3f8b18584245b049e920b8ed8c6, type: 2}
      propertyPath: m_LocalPosition.x
      value: 8.8
      objectReference: {fileID: 0}
    - target: {fileID: 4879105270005734, guid: a2a0c3f8b18584245b049e920b8ed8c6, type: 2}
      propertyPath: m_LocalPosition.y
      value: 0.79
      objectReference: {fileID: 0}
    - target: {fileID: 4879105270005734, guid: a2a0c3f8b18584245b049e920b8ed8c6, type: 2}
      propertyPath: m_LocalPosition.z
      value: -1.128
      objectReference: {fileID: 0}
    - target: {fileID: 4879105270005734, guid: a2a0c3f8b18584245b049e920b8ed8c6, type: 2}
      propertyPath: m_LocalRotation.x
      value: -0
      objectReference: {fileID: 0}
    - target: {fileID: 4879105270005734, guid: a2a0c3f8b18584245b049e920b8ed8c6, type: 2}
      propertyPath: m_LocalRotation.y
      value: -0
      objectReference: {fileID: 0}
    - target: {fileID: 4879105270005734, guid: a2a0c3f8b18584245b049e920b8ed8c6, type: 2}
      propertyPath: m_LocalRotation.z
      value: -0
      objectReference: {fileID: 0}
    - target: {fileID: 4879105270005734, guid: a2a0c3f8b18584245b049e920b8ed8c6, type: 2}
      propertyPath: m_LocalRotation.w
      value: 1
      objectReference: {fileID: 0}
    - target: {fileID: 4879105270005734, guid: a2a0c3f8b18584245b049e920b8ed8c6, type: 2}
      propertyPath: m_RootOrder
      value: 0
      objectReference: {fileID: 0}
    - target: {fileID: 23353855191065484, guid: a2a0c3f8b18584245b049e920b8ed8c6,
        type: 2}
      propertyPath: m_Materials.Array.data[0]
      value: 
      objectReference: {fileID: 2100000, guid: b24acc6c725b9904c9496f0a027e1414, type: 2}
    - target: {fileID: 1966817127179040, guid: a2a0c3f8b18584245b049e920b8ed8c6, type: 2}
      propertyPath: m_Name
      value: prfb_hyaxe01_mobile
      objectReference: {fileID: 0}
    m_RemovedComponents: []
  m_SourcePrefab: {fileID: 100100000, guid: a2a0c3f8b18584245b049e920b8ed8c6, type: 2}
  m_IsPrefabAsset: 0
--- !u!1 &1168008706
GameObject:
  m_ObjectHideFlags: 0
  m_CorrespondingSourceObject: {fileID: 0}
  m_PrefabInternal: {fileID: 0}
  serializedVersion: 6
  m_Component:
  - component: {fileID: 1168008707}
  - component: {fileID: 1168008710}
  - component: {fileID: 1168008709}
  - component: {fileID: 1168008708}
  m_Layer: 0
  m_Name: Plane (12)
  m_TagString: Untagged
  m_Icon: {fileID: 0}
  m_NavMeshLayer: 0
  m_StaticEditorFlags: 0
  m_IsActive: 1
--- !u!4 &1168008707
Transform:
  m_ObjectHideFlags: 0
  m_CorrespondingSourceObject: {fileID: 0}
  m_PrefabInternal: {fileID: 0}
  m_GameObject: {fileID: 1168008706}
  m_LocalRotation: {x: 0.6823545, y: -0, z: -0, w: 0.73102146}
  m_LocalPosition: {x: 1.55, y: 4.18, z: -0.14}
  m_LocalScale: {x: 0.12428, y: 0.12428003, z: 0.12428003}
  m_Children: []
  m_Father: {fileID: 1350006254}
  m_RootOrder: 2
  m_LocalEulerAnglesHint: {x: 86.05601, y: 0, z: 0}
--- !u!23 &1168008708
MeshRenderer:
  m_ObjectHideFlags: 0
  m_CorrespondingSourceObject: {fileID: 0}
  m_PrefabInternal: {fileID: 0}
  m_GameObject: {fileID: 1168008706}
  m_Enabled: 1
  m_CastShadows: 1
  m_ReceiveShadows: 1
  m_DynamicOccludee: 1
  m_MotionVectors: 1
  m_LightProbeUsage: 1
  m_ReflectionProbeUsage: 1
  m_RenderingLayerMask: 4294967295
  m_Materials:
  - {fileID: 2100000, guid: c6145666d94cf5c48ac29d10f8bdb352, type: 2}
  m_StaticBatchInfo:
    firstSubMesh: 0
    subMeshCount: 0
  m_StaticBatchRoot: {fileID: 0}
  m_ProbeAnchor: {fileID: 0}
  m_LightProbeVolumeOverride: {fileID: 0}
  m_ScaleInLightmap: 1
  m_PreserveUVs: 1
  m_IgnoreNormalsForChartDetection: 0
  m_ImportantGI: 0
  m_StitchLightmapSeams: 0
  m_SelectedEditorRenderState: 3
  m_MinimumChartSize: 4
  m_AutoUVMaxDistance: 0.5
  m_AutoUVMaxAngle: 89
  m_LightmapParameters: {fileID: 0}
  m_SortingLayerID: 0
  m_SortingLayer: 0
  m_SortingOrder: 0
--- !u!64 &1168008709
MeshCollider:
  m_ObjectHideFlags: 0
  m_CorrespondingSourceObject: {fileID: 0}
  m_PrefabInternal: {fileID: 0}
  m_GameObject: {fileID: 1168008706}
  m_Material: {fileID: 0}
  m_IsTrigger: 0
  m_Enabled: 1
  serializedVersion: 3
  m_Convex: 0
  m_CookingOptions: 14
  m_SkinWidth: 0.01
  m_Mesh: {fileID: 10209, guid: 0000000000000000e000000000000000, type: 0}
--- !u!33 &1168008710
MeshFilter:
  m_ObjectHideFlags: 0
  m_CorrespondingSourceObject: {fileID: 0}
  m_PrefabInternal: {fileID: 0}
  m_GameObject: {fileID: 1168008706}
  m_Mesh: {fileID: 10209, guid: 0000000000000000e000000000000000, type: 0}
--- !u!1001 &1180447764
Prefab:
  m_ObjectHideFlags: 0
  serializedVersion: 2
  m_Modification:
    m_TransformParent: {fileID: 1406474175}
    m_Modifications:
    - target: {fileID: 4376046614137518, guid: 197e2f64daf07144aa6efe63124c7afe, type: 2}
      propertyPath: m_LocalPosition.x
      value: 9.43
      objectReference: {fileID: 0}
    - target: {fileID: 4376046614137518, guid: 197e2f64daf07144aa6efe63124c7afe, type: 2}
      propertyPath: m_LocalPosition.y
      value: 0.755
      objectReference: {fileID: 0}
    - target: {fileID: 4376046614137518, guid: 197e2f64daf07144aa6efe63124c7afe, type: 2}
      propertyPath: m_LocalPosition.z
      value: -1.469
      objectReference: {fileID: 0}
    - target: {fileID: 4376046614137518, guid: 197e2f64daf07144aa6efe63124c7afe, type: 2}
      propertyPath: m_LocalRotation.x
      value: -0
      objectReference: {fileID: 0}
    - target: {fileID: 4376046614137518, guid: 197e2f64daf07144aa6efe63124c7afe, type: 2}
      propertyPath: m_LocalRotation.y
      value: -0
      objectReference: {fileID: 0}
    - target: {fileID: 4376046614137518, guid: 197e2f64daf07144aa6efe63124c7afe, type: 2}
      propertyPath: m_LocalRotation.z
      value: -0
      objectReference: {fileID: 0}
    - target: {fileID: 4376046614137518, guid: 197e2f64daf07144aa6efe63124c7afe, type: 2}
      propertyPath: m_LocalRotation.w
      value: 1
      objectReference: {fileID: 0}
    - target: {fileID: 4376046614137518, guid: 197e2f64daf07144aa6efe63124c7afe, type: 2}
      propertyPath: m_RootOrder
      value: 2
      objectReference: {fileID: 0}
    - target: {fileID: 23384557355092062, guid: 197e2f64daf07144aa6efe63124c7afe,
        type: 2}
      propertyPath: m_Materials.Array.data[0]
      value: 
      objectReference: {fileID: 2100000, guid: b24acc6c725b9904c9496f0a027e1414, type: 2}
    - target: {fileID: 1944182632980766, guid: 197e2f64daf07144aa6efe63124c7afe, type: 2}
      propertyPath: m_Name
      value: prfb_hvmace02_mobile
      objectReference: {fileID: 0}
    m_RemovedComponents: []
  m_SourcePrefab: {fileID: 100100000, guid: 197e2f64daf07144aa6efe63124c7afe, type: 2}
  m_IsPrefabAsset: 0
--- !u!1 &1234724727
GameObject:
  m_ObjectHideFlags: 0
  m_CorrespondingSourceObject: {fileID: 0}
  m_PrefabInternal: {fileID: 0}
  serializedVersion: 6
  m_Component:
  - component: {fileID: 1234724728}
  - component: {fileID: 1234724731}
  - component: {fileID: 1234724730}
  - component: {fileID: 1234724729}
  m_Layer: 0
  m_Name: Plane (19)
  m_TagString: Untagged
  m_Icon: {fileID: 0}
  m_NavMeshLayer: 0
  m_StaticEditorFlags: 0
  m_IsActive: 1
--- !u!4 &1234724728
Transform:
  m_ObjectHideFlags: 0
  m_CorrespondingSourceObject: {fileID: 0}
  m_PrefabInternal: {fileID: 0}
  m_GameObject: {fileID: 1234724727}
  m_LocalRotation: {x: 0.6823545, y: -0, z: -0, w: 0.73102146}
  m_LocalPosition: {x: -1.32, y: 2.72, z: -0.04}
  m_LocalScale: {x: 0.12428, y: 0.12428003, z: 0.12428003}
  m_Children: []
  m_Father: {fileID: 1350006254}
  m_RootOrder: 7
  m_LocalEulerAnglesHint: {x: 86.05601, y: 0, z: 0}
--- !u!23 &1234724729
MeshRenderer:
  m_ObjectHideFlags: 0
  m_CorrespondingSourceObject: {fileID: 0}
  m_PrefabInternal: {fileID: 0}
  m_GameObject: {fileID: 1234724727}
  m_Enabled: 1
  m_CastShadows: 1
  m_ReceiveShadows: 1
  m_DynamicOccludee: 1
  m_MotionVectors: 1
  m_LightProbeUsage: 1
  m_ReflectionProbeUsage: 1
  m_RenderingLayerMask: 4294967295
  m_Materials:
  - {fileID: 2100000, guid: c67c42c014e16fb478873985f542f2d6, type: 2}
  m_StaticBatchInfo:
    firstSubMesh: 0
    subMeshCount: 0
  m_StaticBatchRoot: {fileID: 0}
  m_ProbeAnchor: {fileID: 0}
  m_LightProbeVolumeOverride: {fileID: 0}
  m_ScaleInLightmap: 1
  m_PreserveUVs: 1
  m_IgnoreNormalsForChartDetection: 0
  m_ImportantGI: 0
  m_StitchLightmapSeams: 0
  m_SelectedEditorRenderState: 3
  m_MinimumChartSize: 4
  m_AutoUVMaxDistance: 0.5
  m_AutoUVMaxAngle: 89
  m_LightmapParameters: {fileID: 0}
  m_SortingLayerID: 0
  m_SortingLayer: 0
  m_SortingOrder: 0
--- !u!64 &1234724730
MeshCollider:
  m_ObjectHideFlags: 0
  m_CorrespondingSourceObject: {fileID: 0}
  m_PrefabInternal: {fileID: 0}
  m_GameObject: {fileID: 1234724727}
  m_Material: {fileID: 0}
  m_IsTrigger: 0
  m_Enabled: 1
  serializedVersion: 3
  m_Convex: 0
  m_CookingOptions: 14
  m_SkinWidth: 0.01
  m_Mesh: {fileID: 10209, guid: 0000000000000000e000000000000000, type: 0}
--- !u!33 &1234724731
MeshFilter:
  m_ObjectHideFlags: 0
  m_CorrespondingSourceObject: {fileID: 0}
  m_PrefabInternal: {fileID: 0}
  m_GameObject: {fileID: 1234724727}
  m_Mesh: {fileID: 10209, guid: 0000000000000000e000000000000000, type: 0}
--- !u!1 &1237573417
GameObject:
  m_ObjectHideFlags: 0
  m_CorrespondingSourceObject: {fileID: 0}
  m_PrefabInternal: {fileID: 0}
  serializedVersion: 6
  m_Component:
  - component: {fileID: 1237573422}
  - component: {fileID: 1237573421}
  - component: {fileID: 1237573420}
  - component: {fileID: 1237573419}
  - component: {fileID: 1237573418}
  m_Layer: 0
  m_Name: Main Camera
  m_TagString: MainCamera
  m_Icon: {fileID: 0}
  m_NavMeshLayer: 0
  m_StaticEditorFlags: 0
  m_IsActive: 1
--- !u!81 &1237573418
AudioListener:
  m_ObjectHideFlags: 0
  m_CorrespondingSourceObject: {fileID: 0}
  m_PrefabInternal: {fileID: 0}
  m_GameObject: {fileID: 1237573417}
  m_Enabled: 1
--- !u!124 &1237573419
Behaviour:
  m_ObjectHideFlags: 0
  m_CorrespondingSourceObject: {fileID: 0}
  m_PrefabInternal: {fileID: 0}
  m_GameObject: {fileID: 1237573417}
  m_Enabled: 1
--- !u!92 &1237573420
Behaviour:
  m_ObjectHideFlags: 0
  m_CorrespondingSourceObject: {fileID: 0}
  m_PrefabInternal: {fileID: 0}
  m_GameObject: {fileID: 1237573417}
  m_Enabled: 1
--- !u!20 &1237573421
Camera:
  m_ObjectHideFlags: 0
  m_CorrespondingSourceObject: {fileID: 0}
  m_PrefabInternal: {fileID: 0}
  m_GameObject: {fileID: 1237573417}
  m_Enabled: 1
  serializedVersion: 2
  m_ClearFlags: 1
  m_BackGroundColor: {r: 0.19215687, g: 0.3019608, b: 0.4745098, a: 0}
  m_projectionMatrixMode: 1
  m_SensorSize: {x: 36, y: 24}
  m_LensShift: {x: 0, y: 0}
  m_FocalLength: 50
  m_NormalizedViewPortRect:
    serializedVersion: 2
    x: 0
    y: 0
    width: 1
    height: 1
  near clip plane: 0.3
  far clip plane: 1000
  field of view: 60
  orthographic: 0
  orthographic size: 5
  m_Depth: -1
  m_CullingMask:
    serializedVersion: 2
    m_Bits: 4294967295
  m_RenderingPath: -1
  m_TargetTexture: {fileID: 0}
  m_TargetDisplay: 0
  m_TargetEye: 3
  m_HDR: 0
  m_AllowMSAA: 1
  m_AllowDynamicResolution: 0
  m_ForceIntoRT: 0
  m_OcclusionCulling: 1
  m_StereoConvergence: 10
  m_StereoSeparation: 0.022
--- !u!4 &1237573422
Transform:
  m_ObjectHideFlags: 0
  m_CorrespondingSourceObject: {fileID: 0}
  m_PrefabInternal: {fileID: 0}
  m_GameObject: {fileID: 1237573417}
  m_LocalRotation: {x: 0.000003743917, y: 0.9999415, z: -0.010812827, w: 0.0002972484}
  m_LocalPosition: {x: 2.1230092, y: 1.8358741, z: 2.687417}
  m_LocalScale: {x: 1, y: 1, z: 1}
  m_Children: []
  m_Father: {fileID: 0}
  m_RootOrder: 0
  m_LocalEulerAnglesHint: {x: 0, y: 0, z: 0}
--- !u!1 &1350006253
GameObject:
  m_ObjectHideFlags: 0
  m_CorrespondingSourceObject: {fileID: 0}
  m_PrefabInternal: {fileID: 0}
  serializedVersion: 6
  m_Component:
  - component: {fileID: 1350006254}
  m_Layer: 0
  m_Name: color variation
  m_TagString: Untagged
  m_Icon: {fileID: 0}
  m_NavMeshLayer: 0
  m_StaticEditorFlags: 0
  m_IsActive: 1
--- !u!4 &1350006254
Transform:
  m_ObjectHideFlags: 0
  m_CorrespondingSourceObject: {fileID: 0}
  m_PrefabInternal: {fileID: 0}
  m_GameObject: {fileID: 1350006253}
  m_LocalRotation: {x: 0, y: 0, z: 0, w: 1}
  m_LocalPosition: {x: -9.86, y: 0, z: -2.62}
  m_LocalScale: {x: 1, y: 1, z: 1}
  m_Children:
  - {fileID: 1055811724}
  - {fileID: 201706799}
  - {fileID: 1168008707}
  - {fileID: 1746953776}
  - {fileID: 1644758727}
  - {fileID: 1870133247}
  - {fileID: 398988695}
  - {fileID: 1234724728}
  - {fileID: 1137301322}
  - {fileID: 687474599}
  - {fileID: 1096573353}
  - {fileID: 1505970777}
  m_Father: {fileID: 0}
  m_RootOrder: 4
  m_LocalEulerAnglesHint: {x: 0, y: 0, z: 0}
--- !u!1 &1406474174
GameObject:
  m_ObjectHideFlags: 0
  m_CorrespondingSourceObject: {fileID: 0}
  m_PrefabInternal: {fileID: 0}
  serializedVersion: 6
  m_Component:
  - component: {fileID: 1406474175}
  m_Layer: 0
  m_Name: hyprop
  m_TagString: Untagged
  m_Icon: {fileID: 0}
  m_NavMeshLayer: 0
  m_StaticEditorFlags: 0
  m_IsActive: 1
--- !u!4 &1406474175
Transform:
  m_ObjectHideFlags: 0
  m_CorrespondingSourceObject: {fileID: 0}
  m_PrefabInternal: {fileID: 0}
  m_GameObject: {fileID: 1406474174}
  m_LocalRotation: {x: -0, y: -0, z: -0, w: 1}
  m_LocalPosition: {x: -1.393, y: 0, z: -0.509}
  m_LocalScale: {x: 1, y: 1, z: 1}
  m_Children:
  - {fileID: 728223843}
  - {fileID: 1588454356}
  - {fileID: 665480995}
  - {fileID: 829430299}
  - {fileID: 1000508388}
  - {fileID: 964143923}
  - {fileID: 754683773}
  - {fileID: 108585078}
  - {fileID: 2084108718}
  - {fileID: 1646190842}
  m_Father: {fileID: 0}
  m_RootOrder: 2
  m_LocalEulerAnglesHint: {x: 0, y: 0, z: 0}
--- !u!1001 &1505970776
Prefab:
  m_ObjectHideFlags: 0
  serializedVersion: 2
  m_Modification:
    m_TransformParent: {fileID: 1350006254}
    m_Modifications:
    - target: {fileID: 13700000, guid: 0372829a6cdcf4048864aefb5257a6d9, type: 3}
      propertyPath: m_BlendShapeWeights.Array.size
      value: 37
      objectReference: {fileID: 0}
    - target: {fileID: 400028, guid: 0372829a6cdcf4048864aefb5257a6d9, type: 3}
      propertyPath: m_LocalPosition.x
      value: -0.54
      objectReference: {fileID: 0}
    - target: {fileID: 400028, guid: 0372829a6cdcf4048864aefb5257a6d9, type: 3}
      propertyPath: m_LocalPosition.y
      value: 0
      objectReference: {fileID: 0}
    - target: {fileID: 400028, guid: 0372829a6cdcf4048864aefb5257a6d9, type: 3}
      propertyPath: m_LocalPosition.z
      value: 1.697
      objectReference: {fileID: 0}
    - target: {fileID: 400028, guid: 0372829a6cdcf4048864aefb5257a6d9, type: 3}
      propertyPath: m_LocalRotation.x
      value: -0
      objectReference: {fileID: 0}
    - target: {fileID: 400028, guid: 0372829a6cdcf4048864aefb5257a6d9, type: 3}
      propertyPath: m_LocalRotation.y
      value: -0
      objectReference: {fileID: 0}
    - target: {fileID: 400028, guid: 0372829a6cdcf4048864aefb5257a6d9, type: 3}
      propertyPath: m_LocalRotation.z
      value: -0
      objectReference: {fileID: 0}
    - target: {fileID: 400028, guid: 0372829a6cdcf4048864aefb5257a6d9, type: 3}
      propertyPath: m_LocalRotation.w
      value: 1
      objectReference: {fileID: 0}
    - target: {fileID: 400028, guid: 0372829a6cdcf4048864aefb5257a6d9, type: 3}
      propertyPath: m_RootOrder
      value: 11
      objectReference: {fileID: 0}
    - target: {fileID: 13700000, guid: 0372829a6cdcf4048864aefb5257a6d9, type: 3}
      propertyPath: m_Materials.Array.data[6]
      value: 
      objectReference: {fileID: 2100000, guid: e52beaa4aab34c142addc7c051e1e4ae, type: 2}
    - target: {fileID: 13700000, guid: 0372829a6cdcf4048864aefb5257a6d9, type: 3}
      propertyPath: m_Materials.Array.data[3]
      value: 
      objectReference: {fileID: 2100000, guid: 9e0a6f22b92dc5443885f4d2be4e65c8, type: 2}
    - target: {fileID: 13700000, guid: 0372829a6cdcf4048864aefb5257a6d9, type: 3}
      propertyPath: m_Materials.Array.data[1]
      value: 
      objectReference: {fileID: 2100000, guid: 9e0a6f22b92dc5443885f4d2be4e65c8, type: 2}
    - target: {fileID: 13700000, guid: 0372829a6cdcf4048864aefb5257a6d9, type: 3}
      propertyPath: m_Materials.Array.data[4]
      value: 
      objectReference: {fileID: 2100000, guid: 9e0a6f22b92dc5443885f4d2be4e65c8, type: 2}
    - target: {fileID: 13700000, guid: 0372829a6cdcf4048864aefb5257a6d9, type: 3}
      propertyPath: m_Materials.Array.data[2]
      value: 
      objectReference: {fileID: 2100000, guid: 9e0a6f22b92dc5443885f4d2be4e65c8, type: 2}
    - target: {fileID: 13700000, guid: 0372829a6cdcf4048864aefb5257a6d9, type: 3}
      propertyPath: m_Materials.Array.data[7]
      value: 
      objectReference: {fileID: 2100000, guid: 9e0a6f22b92dc5443885f4d2be4e65c8, type: 2}
    - target: {fileID: 100028, guid: 0372829a6cdcf4048864aefb5257a6d9, type: 3}
      propertyPath: m_Name
      value: Hyahaa_v1_variable_T (2)
      objectReference: {fileID: 0}
    - target: {fileID: 400074, guid: 0372829a6cdcf4048864aefb5257a6d9, type: 3}
      propertyPath: m_LocalScale.x
      value: 0.45394516
      objectReference: {fileID: 0}
    - target: {fileID: 400074, guid: 0372829a6cdcf4048864aefb5257a6d9, type: 3}
      propertyPath: m_LocalScale.y
      value: 0.45394516
      objectReference: {fileID: 0}
    - target: {fileID: 400074, guid: 0372829a6cdcf4048864aefb5257a6d9, type: 3}
      propertyPath: m_LocalScale.z
      value: 0.45394516
      objectReference: {fileID: 0}
    - target: {fileID: 400074, guid: 0372829a6cdcf4048864aefb5257a6d9, type: 3}
      propertyPath: m_LocalPosition.y
      value: 0.00092
      objectReference: {fileID: 0}
    - target: {fileID: 400074, guid: 0372829a6cdcf4048864aefb5257a6d9, type: 3}
      propertyPath: m_LocalPosition.z
      value: 0.00045
      objectReference: {fileID: 0}
    - target: {fileID: 400092, guid: 0372829a6cdcf4048864aefb5257a6d9, type: 3}
      propertyPath: m_LocalScale.x
      value: 1.7992864
      objectReference: {fileID: 0}
    - target: {fileID: 400092, guid: 0372829a6cdcf4048864aefb5257a6d9, type: 3}
      propertyPath: m_LocalScale.y
      value: 1.7992872
      objectReference: {fileID: 0}
    - target: {fileID: 400092, guid: 0372829a6cdcf4048864aefb5257a6d9, type: 3}
      propertyPath: m_LocalScale.z
      value: 1.7992872
      objectReference: {fileID: 0}
    - target: {fileID: 400090, guid: 0372829a6cdcf4048864aefb5257a6d9, type: 3}
      propertyPath: m_LocalScale.x
      value: 1.7992864
      objectReference: {fileID: 0}
    - target: {fileID: 400090, guid: 0372829a6cdcf4048864aefb5257a6d9, type: 3}
      propertyPath: m_LocalScale.y
      value: 1.7992872
      objectReference: {fileID: 0}
    - target: {fileID: 400090, guid: 0372829a6cdcf4048864aefb5257a6d9, type: 3}
      propertyPath: m_LocalScale.z
      value: 1.7992872
      objectReference: {fileID: 0}
    - target: {fileID: 400092, guid: 0372829a6cdcf4048864aefb5257a6d9, type: 3}
      propertyPath: m_LocalPosition.x
      value: 0.00011
      objectReference: {fileID: 0}
    - target: {fileID: 400092, guid: 0372829a6cdcf4048864aefb5257a6d9, type: 3}
      propertyPath: m_LocalPosition.y
      value: 0.00152
      objectReference: {fileID: 0}
    - target: {fileID: 400092, guid: 0372829a6cdcf4048864aefb5257a6d9, type: 3}
      propertyPath: m_LocalPosition.z
      value: 0.00007
      objectReference: {fileID: 0}
    - target: {fileID: 400090, guid: 0372829a6cdcf4048864aefb5257a6d9, type: 3}
      propertyPath: m_LocalPosition.x
      value: 0.00027
      objectReference: {fileID: 0}
    - target: {fileID: 400090, guid: 0372829a6cdcf4048864aefb5257a6d9, type: 3}
      propertyPath: m_LocalPosition.y
      value: 0.00151
      objectReference: {fileID: 0}
    - target: {fileID: 400090, guid: 0372829a6cdcf4048864aefb5257a6d9, type: 3}
      propertyPath: m_LocalPosition.z
      value: 0.00006
      objectReference: {fileID: 0}
    - target: {fileID: 400088, guid: 0372829a6cdcf4048864aefb5257a6d9, type: 3}
      propertyPath: m_LocalScale.x
      value: 0.5063576
      objectReference: {fileID: 0}
    - target: {fileID: 400088, guid: 0372829a6cdcf4048864aefb5257a6d9, type: 3}
      propertyPath: m_LocalScale.y
      value: 0.50635767
      objectReference: {fileID: 0}
    - target: {fileID: 400088, guid: 0372829a6cdcf4048864aefb5257a6d9, type: 3}
      propertyPath: m_LocalScale.z
      value: 0.50635767
      objectReference: {fileID: 0}
    - target: {fileID: 13700000, guid: 0372829a6cdcf4048864aefb5257a6d9, type: 3}
      propertyPath: m_BlendShapeWeights.Array.data[20]
      value: 100
      objectReference: {fileID: 0}
    - target: {fileID: 13700000, guid: 0372829a6cdcf4048864aefb5257a6d9, type: 3}
      propertyPath: m_BlendShapeWeights.Array.data[19]
      value: 50
      objectReference: {fileID: 0}
    - target: {fileID: 13700000, guid: 0372829a6cdcf4048864aefb5257a6d9, type: 3}
      propertyPath: m_BlendShapeWeights.Array.data[25]
      value: 100
      objectReference: {fileID: 0}
    - target: {fileID: 13700000, guid: 0372829a6cdcf4048864aefb5257a6d9, type: 3}
      propertyPath: m_BlendShapeWeights.Array.data[24]
      value: 100
      objectReference: {fileID: 0}
    m_RemovedComponents: []
  m_SourcePrefab: {fileID: 100100000, guid: 0372829a6cdcf4048864aefb5257a6d9, type: 3}
  m_IsPrefabAsset: 0
--- !u!4 &1505970777 stripped
Transform:
  m_CorrespondingSourceObject: {fileID: 400028, guid: 0372829a6cdcf4048864aefb5257a6d9,
    type: 3}
  m_PrefabInternal: {fileID: 1505970776}
--- !u!1 &1513447592
GameObject:
  m_ObjectHideFlags: 0
  m_CorrespondingSourceObject: {fileID: 0}
  m_PrefabInternal: {fileID: 0}
  serializedVersion: 6
  m_Component:
  - component: {fileID: 1513447593}
  m_Layer: 0
  m_Name: hyahaas character
  m_TagString: Untagged
  m_Icon: {fileID: 0}
  m_NavMeshLayer: 0
  m_StaticEditorFlags: 0
  m_IsActive: 1
--- !u!4 &1513447593
Transform:
  m_ObjectHideFlags: 0
  m_CorrespondingSourceObject: {fileID: 0}
  m_PrefabInternal: {fileID: 0}
  m_GameObject: {fileID: 1513447592}
  m_LocalRotation: {x: -0, y: -0, z: -0, w: 1}
  m_LocalPosition: {x: 0, y: 0, z: 0}
  m_LocalScale: {x: 1, y: 1, z: 1}
  m_Children:
  - {fileID: 114514821}
  - {fileID: 956653885}
  - {fileID: 266842023}
  - {fileID: 1802525499}
  m_Father: {fileID: 0}
  m_RootOrder: 3
  m_LocalEulerAnglesHint: {x: 0, y: 0, z: 0}
--- !u!4 &1588454356 stripped
Transform:
  m_CorrespondingSourceObject: {fileID: 4436137686616276, guid: f022dd2ff2b23c14ea58cec9413d5e7c,
    type: 2}
  m_PrefabInternal: {fileID: 265863940}
--- !u!1 &1644758726
GameObject:
  m_ObjectHideFlags: 0
  m_CorrespondingSourceObject: {fileID: 0}
  m_PrefabInternal: {fileID: 0}
  serializedVersion: 6
  m_Component:
  - component: {fileID: 1644758727}
  - component: {fileID: 1644758730}
  - component: {fileID: 1644758729}
  - component: {fileID: 1644758728}
  m_Layer: 0
  m_Name: Plane (14)
  m_TagString: Untagged
  m_Icon: {fileID: 0}
  m_NavMeshLayer: 0
  m_StaticEditorFlags: 0
  m_IsActive: 1
--- !u!4 &1644758727
Transform:
  m_ObjectHideFlags: 0
  m_CorrespondingSourceObject: {fileID: 0}
  m_PrefabInternal: {fileID: 0}
  m_GameObject: {fileID: 1644758726}
  m_LocalRotation: {x: 0.6823545, y: -0, z: -0, w: 0.73102146}
  m_LocalPosition: {x: 0.11, y: 1.36, z: 0.05}
  m_LocalScale: {x: 0.12428, y: 0.12428003, z: 0.12428003}
  m_Children: []
  m_Father: {fileID: 1350006254}
  m_RootOrder: 4
  m_LocalEulerAnglesHint: {x: 86.05601, y: 0, z: 0}
--- !u!23 &1644758728
MeshRenderer:
  m_ObjectHideFlags: 0
  m_CorrespondingSourceObject: {fileID: 0}
  m_PrefabInternal: {fileID: 0}
  m_GameObject: {fileID: 1644758726}
  m_Enabled: 1
  m_CastShadows: 1
  m_ReceiveShadows: 1
  m_DynamicOccludee: 1
  m_MotionVectors: 1
  m_LightProbeUsage: 1
  m_ReflectionProbeUsage: 1
  m_RenderingLayerMask: 4294967295
  m_Materials:
  - {fileID: 2100000, guid: 2d2170169708ee74f83511565b2c7451, type: 2}
  m_StaticBatchInfo:
    firstSubMesh: 0
    subMeshCount: 0
  m_StaticBatchRoot: {fileID: 0}
  m_ProbeAnchor: {fileID: 0}
  m_LightProbeVolumeOverride: {fileID: 0}
  m_ScaleInLightmap: 1
  m_PreserveUVs: 1
  m_IgnoreNormalsForChartDetection: 0
  m_ImportantGI: 0
  m_StitchLightmapSeams: 0
  m_SelectedEditorRenderState: 3
  m_MinimumChartSize: 4
  m_AutoUVMaxDistance: 0.5
  m_AutoUVMaxAngle: 89
  m_LightmapParameters: {fileID: 0}
  m_SortingLayerID: 0
  m_SortingLayer: 0
  m_SortingOrder: 0
--- !u!64 &1644758729
MeshCollider:
  m_ObjectHideFlags: 0
  m_CorrespondingSourceObject: {fileID: 0}
  m_PrefabInternal: {fileID: 0}
  m_GameObject: {fileID: 1644758726}
  m_Material: {fileID: 0}
  m_IsTrigger: 0
  m_Enabled: 1
  serializedVersion: 3
  m_Convex: 0
  m_CookingOptions: 14
  m_SkinWidth: 0.01
  m_Mesh: {fileID: 10209, guid: 0000000000000000e000000000000000, type: 0}
--- !u!33 &1644758730
MeshFilter:
  m_ObjectHideFlags: 0
  m_CorrespondingSourceObject: {fileID: 0}
  m_PrefabInternal: {fileID: 0}
  m_GameObject: {fileID: 1644758726}
  m_Mesh: {fileID: 10209, guid: 0000000000000000e000000000000000, type: 0}
--- !u!1001 &1646190841
Prefab:
  m_ObjectHideFlags: 0
  serializedVersion: 2
  m_Modification:
    m_TransformParent: {fileID: 1406474175}
    m_Modifications:
    - target: {fileID: 4436137686616276, guid: f022dd2ff2b23c14ea58cec9413d5e7c, type: 2}
      propertyPath: m_LocalPosition.x
      value: 0.355
      objectReference: {fileID: 0}
    - target: {fileID: 4436137686616276, guid: f022dd2ff2b23c14ea58cec9413d5e7c, type: 2}
      propertyPath: m_LocalPosition.y
      value: 0.79
      objectReference: {fileID: 0}
    - target: {fileID: 4436137686616276, guid: f022dd2ff2b23c14ea58cec9413d5e7c, type: 2}
      propertyPath: m_LocalPosition.z
      value: -2.25
      objectReference: {fileID: 0}
    - target: {fileID: 4436137686616276, guid: f022dd2ff2b23c14ea58cec9413d5e7c, type: 2}
      propertyPath: m_LocalRotation.x
      value: 0.000000081460335
      objectReference: {fileID: 0}
    - target: {fileID: 4436137686616276, guid: f022dd2ff2b23c14ea58cec9413d5e7c, type: 2}
      propertyPath: m_LocalRotation.y
      value: -0
      objectReference: {fileID: 0}
    - target: {fileID: 4436137686616276, guid: f022dd2ff2b23c14ea58cec9413d5e7c, type: 2}
      propertyPath: m_LocalRotation.z
      value: -0
      objectReference: {fileID: 0}
    - target: {fileID: 4436137686616276, guid: f022dd2ff2b23c14ea58cec9413d5e7c, type: 2}
      propertyPath: m_LocalRotation.w
      value: 1
      objectReference: {fileID: 0}
    - target: {fileID: 4436137686616276, guid: f022dd2ff2b23c14ea58cec9413d5e7c, type: 2}
      propertyPath: m_RootOrder
      value: 9
      objectReference: {fileID: 0}
    - target: {fileID: 1726453799255924, guid: f022dd2ff2b23c14ea58cec9413d5e7c, type: 2}
      propertyPath: m_Name
      value: prfb_hyhammer
      objectReference: {fileID: 0}
    m_RemovedComponents: []
  m_SourcePrefab: {fileID: 100100000, guid: f022dd2ff2b23c14ea58cec9413d5e7c, type: 2}
  m_IsPrefabAsset: 0
--- !u!4 &1646190842 stripped
Transform:
  m_CorrespondingSourceObject: {fileID: 4436137686616276, guid: f022dd2ff2b23c14ea58cec9413d5e7c,
    type: 2}
  m_PrefabInternal: {fileID: 1646190841}
--- !u!1 &1746953775
GameObject:
  m_ObjectHideFlags: 0
  m_CorrespondingSourceObject: {fileID: 0}
  m_PrefabInternal: {fileID: 0}
  serializedVersion: 6
  m_Component:
  - component: {fileID: 1746953776}
  - component: {fileID: 1746953779}
  - component: {fileID: 1746953778}
  - component: {fileID: 1746953777}
  m_Layer: 0
  m_Name: Plane (13)
  m_TagString: Untagged
  m_Icon: {fileID: 0}
  m_NavMeshLayer: 0
  m_StaticEditorFlags: 0
  m_IsActive: 1
--- !u!4 &1746953776
Transform:
  m_ObjectHideFlags: 0
  m_CorrespondingSourceObject: {fileID: 0}
  m_PrefabInternal: {fileID: 0}
  m_GameObject: {fileID: 1746953775}
  m_LocalRotation: {x: 0.6823545, y: -0, z: -0, w: 0.73102146}
  m_LocalPosition: {x: 1.62, y: 2.73, z: -0.04}
  m_LocalScale: {x: 0.12428, y: 0.12428003, z: 0.12428003}
  m_Children: []
  m_Father: {fileID: 1350006254}
  m_RootOrder: 3
  m_LocalEulerAnglesHint: {x: 86.05601, y: 0, z: 0}
--- !u!23 &1746953777
MeshRenderer:
  m_ObjectHideFlags: 0
  m_CorrespondingSourceObject: {fileID: 0}
  m_PrefabInternal: {fileID: 0}
  m_GameObject: {fileID: 1746953775}
  m_Enabled: 1
  m_CastShadows: 1
  m_ReceiveShadows: 1
  m_DynamicOccludee: 1
  m_MotionVectors: 1
  m_LightProbeUsage: 1
  m_ReflectionProbeUsage: 1
  m_RenderingLayerMask: 4294967295
  m_Materials:
  - {fileID: 2100000, guid: ec121aa38db49aa43a56eaaed82e342e, type: 2}
  m_StaticBatchInfo:
    firstSubMesh: 0
    subMeshCount: 0
  m_StaticBatchRoot: {fileID: 0}
  m_ProbeAnchor: {fileID: 0}
  m_LightProbeVolumeOverride: {fileID: 0}
  m_ScaleInLightmap: 1
  m_PreserveUVs: 1
  m_IgnoreNormalsForChartDetection: 0
  m_ImportantGI: 0
  m_StitchLightmapSeams: 0
  m_SelectedEditorRenderState: 3
  m_MinimumChartSize: 4
  m_AutoUVMaxDistance: 0.5
  m_AutoUVMaxAngle: 89
  m_LightmapParameters: {fileID: 0}
  m_SortingLayerID: 0
  m_SortingLayer: 0
  m_SortingOrder: 0
--- !u!64 &1746953778
MeshCollider:
  m_ObjectHideFlags: 0
  m_CorrespondingSourceObject: {fileID: 0}
  m_PrefabInternal: {fileID: 0}
  m_GameObject: {fileID: 1746953775}
  m_Material: {fileID: 0}
  m_IsTrigger: 0
  m_Enabled: 1
  serializedVersion: 3
  m_Convex: 0
  m_CookingOptions: 14
  m_SkinWidth: 0.01
  m_Mesh: {fileID: 10209, guid: 0000000000000000e000000000000000, type: 0}
--- !u!33 &1746953779
MeshFilter:
  m_ObjectHideFlags: 0
  m_CorrespondingSourceObject: {fileID: 0}
  m_PrefabInternal: {fileID: 0}
  m_GameObject: {fileID: 1746953775}
  m_Mesh: {fileID: 10209, guid: 0000000000000000e000000000000000, type: 0}
--- !u!1 &1802525496
GameObject:
  m_ObjectHideFlags: 0
  m_CorrespondingSourceObject: {fileID: 0}
  m_PrefabInternal: {fileID: 0}
  serializedVersion: 6
  m_Component:
  - component: {fileID: 1802525499}
  - component: {fileID: 1802525498}
  - component: {fileID: 1802525497}
  m_Layer: 0
  m_Name: New Text (2)
  m_TagString: Untagged
  m_Icon: {fileID: 0}
  m_NavMeshLayer: 0
  m_StaticEditorFlags: 0
  m_IsActive: 1
--- !u!102 &1802525497
TextMesh:
  serializedVersion: 3
  m_ObjectHideFlags: 0
  m_CorrespondingSourceObject: {fileID: 0}
  m_PrefabInternal: {fileID: 0}
  m_GameObject: {fileID: 1802525496}
  m_Text: PBR Texture
  m_OffsetZ: 0
  m_CharacterSize: 1
  m_LineSpacing: 1
  m_Anchor: 0
  m_Alignment: 0
  m_TabSize: 4
  m_FontSize: 0
  m_FontStyle: 0
  m_RichText: 1
  m_Font: {fileID: 10102, guid: 0000000000000000e000000000000000, type: 0}
  m_Color:
    serializedVersion: 2
    rgba: 4294967295
--- !u!23 &1802525498
MeshRenderer:
  m_ObjectHideFlags: 0
  m_CorrespondingSourceObject: {fileID: 0}
  m_PrefabInternal: {fileID: 0}
  m_GameObject: {fileID: 1802525496}
  m_Enabled: 1
  m_CastShadows: 1
  m_ReceiveShadows: 1
  m_DynamicOccludee: 1
  m_MotionVectors: 1
  m_LightProbeUsage: 1
  m_ReflectionProbeUsage: 1
  m_RenderingLayerMask: 4294967295
  m_Materials:
  - {fileID: 10100, guid: 0000000000000000e000000000000000, type: 0}
  m_StaticBatchInfo:
    firstSubMesh: 0
    subMeshCount: 0
  m_StaticBatchRoot: {fileID: 0}
  m_ProbeAnchor: {fileID: 0}
  m_LightProbeVolumeOverride: {fileID: 0}
  m_ScaleInLightmap: 1
  m_PreserveUVs: 0
  m_IgnoreNormalsForChartDetection: 0
  m_ImportantGI: 0
  m_StitchLightmapSeams: 0
  m_SelectedEditorRenderState: 3
  m_MinimumChartSize: 4
  m_AutoUVMaxDistance: 0.5
  m_AutoUVMaxAngle: 89
  m_LightmapParameters: {fileID: 0}
  m_SortingLayerID: 0
  m_SortingLayer: 0
  m_SortingOrder: 0
--- !u!4 &1802525499
Transform:
  m_ObjectHideFlags: 0
  m_CorrespondingSourceObject: {fileID: 0}
  m_PrefabInternal: {fileID: 0}
  m_GameObject: {fileID: 1802525496}
  m_LocalRotation: {x: -0, y: 1, z: -0, w: 0}
  m_LocalPosition: {x: 3.158, y: 2.172, z: -2.83}
  m_LocalScale: {x: 0.27436, y: 0.27436, z: 0.27436}
  m_Children: []
  m_Father: {fileID: 1513447593}
  m_RootOrder: 3
  m_LocalEulerAnglesHint: {x: 0, y: 180, z: 0}
--- !u!1 &1870133246
GameObject:
  m_ObjectHideFlags: 0
  m_CorrespondingSourceObject: {fileID: 0}
  m_PrefabInternal: {fileID: 0}
  serializedVersion: 6
  m_Component:
  - component: {fileID: 1870133247}
  - component: {fileID: 1870133250}
  - component: {fileID: 1870133249}
  - component: {fileID: 1870133248}
  m_Layer: 0
  m_Name: Plane (15)
  m_TagString: Untagged
  m_Icon: {fileID: 0}
  m_NavMeshLayer: 0
  m_StaticEditorFlags: 0
  m_IsActive: 1
--- !u!4 &1870133247
Transform:
  m_ObjectHideFlags: 0
  m_CorrespondingSourceObject: {fileID: 0}
  m_PrefabInternal: {fileID: 0}
  m_GameObject: {fileID: 1870133246}
  m_LocalRotation: {x: 0.6823545, y: -0, z: -0, w: 0.73102146}
  m_LocalPosition: {x: -1.21, y: 4.18, z: -0.14}
  m_LocalScale: {x: 0.12428, y: 0.12428003, z: 0.12428003}
  m_Children: []
  m_Father: {fileID: 1350006254}
  m_RootOrder: 5
  m_LocalEulerAnglesHint: {x: 86.05601, y: 0, z: 0}
--- !u!23 &1870133248
MeshRenderer:
  m_ObjectHideFlags: 0
  m_CorrespondingSourceObject: {fileID: 0}
  m_PrefabInternal: {fileID: 0}
  m_GameObject: {fileID: 1870133246}
  m_Enabled: 1
  m_CastShadows: 1
  m_ReceiveShadows: 1
  m_DynamicOccludee: 1
  m_MotionVectors: 1
  m_LightProbeUsage: 1
  m_ReflectionProbeUsage: 1
  m_RenderingLayerMask: 4294967295
  m_Materials:
  - {fileID: 2100000, guid: bc87847b7537bb7479ebfd6de9208c8b, type: 2}
  m_StaticBatchInfo:
    firstSubMesh: 0
    subMeshCount: 0
  m_StaticBatchRoot: {fileID: 0}
  m_ProbeAnchor: {fileID: 0}
  m_LightProbeVolumeOverride: {fileID: 0}
  m_ScaleInLightmap: 1
  m_PreserveUVs: 1
  m_IgnoreNormalsForChartDetection: 0
  m_ImportantGI: 0
  m_StitchLightmapSeams: 0
  m_SelectedEditorRenderState: 3
  m_MinimumChartSize: 4
  m_AutoUVMaxDistance: 0.5
  m_AutoUVMaxAngle: 89
  m_LightmapParameters: {fileID: 0}
  m_SortingLayerID: 0
  m_SortingLayer: 0
  m_SortingOrder: 0
--- !u!64 &1870133249
MeshCollider:
  m_ObjectHideFlags: 0
  m_CorrespondingSourceObject: {fileID: 0}
  m_PrefabInternal: {fileID: 0}
  m_GameObject: {fileID: 1870133246}
  m_Material: {fileID: 0}
  m_IsTrigger: 0
  m_Enabled: 1
  serializedVersion: 3
  m_Convex: 0
  m_CookingOptions: 14
  m_SkinWidth: 0.01
  m_Mesh: {fileID: 10209, guid: 0000000000000000e000000000000000, type: 0}
--- !u!33 &1870133250
MeshFilter:
  m_ObjectHideFlags: 0
  m_CorrespondingSourceObject: {fileID: 0}
  m_PrefabInternal: {fileID: 0}
  m_GameObject: {fileID: 1870133246}
  m_Mesh: {fileID: 10209, guid: 0000000000000000e000000000000000, type: 0}
--- !u!1001 &2084108717
Prefab:
  m_ObjectHideFlags: 0
  serializedVersion: 2
  m_Modification:
    m_TransformParent: {fileID: 1406474175}
    m_Modifications:
    - target: {fileID: 4315461222553232, guid: 094ba6dd151834e42bc32cfdc2312f4d, type: 2}
      propertyPath: m_LocalPosition.x
      value: 1.314
      objectReference: {fileID: 0}
    - target: {fileID: 4315461222553232, guid: 094ba6dd151834e42bc32cfdc2312f4d, type: 2}
      propertyPath: m_LocalPosition.y
      value: 0.79
      objectReference: {fileID: 0}
    - target: {fileID: 4315461222553232, guid: 094ba6dd151834e42bc32cfdc2312f4d, type: 2}
      propertyPath: m_LocalPosition.z
      value: -3.195
      objectReference: {fileID: 0}
    - target: {fileID: 4315461222553232, guid: 094ba6dd151834e42bc32cfdc2312f4d, type: 2}
      propertyPath: m_LocalRotation.x
      value: -0
      objectReference: {fileID: 0}
    - target: {fileID: 4315461222553232, guid: 094ba6dd151834e42bc32cfdc2312f4d, type: 2}
      propertyPath: m_LocalRotation.y
      value: -0
      objectReference: {fileID: 0}
    - target: {fileID: 4315461222553232, guid: 094ba6dd151834e42bc32cfdc2312f4d, type: 2}
      propertyPath: m_LocalRotation.z
      value: -0
      objectReference: {fileID: 0}
    - target: {fileID: 4315461222553232, guid: 094ba6dd151834e42bc32cfdc2312f4d, type: 2}
      propertyPath: m_LocalRotation.w
      value: 1
      objectReference: {fileID: 0}
    - target: {fileID: 4315461222553232, guid: 094ba6dd151834e42bc32cfdc2312f4d, type: 2}
      propertyPath: m_RootOrder
      value: 8
      objectReference: {fileID: 0}
    - target: {fileID: 1347993628005170, guid: 094ba6dd151834e42bc32cfdc2312f4d, type: 2}
      propertyPath: m_Name
      value: prfb_hysaw01
      objectReference: {fileID: 0}
    m_RemovedComponents: []
  m_SourcePrefab: {fileID: 100100000, guid: 094ba6dd151834e42bc32cfdc2312f4d, type: 2}
  m_IsPrefabAsset: 0
--- !u!4 &2084108718 stripped
Transform:
  m_CorrespondingSourceObject: {fileID: 4315461222553232, guid: 094ba6dd151834e42bc32cfdc2312f4d,
    type: 2}
  m_PrefabInternal: {fileID: 2084108717}
